--- <summary>
--- Creates and controls the control bits using the digital I/O subsystem. 
--  This configuration is used for testing to define
--- the bits to turn on when starting or ending a test.</summary>
--- <remarks></remarks>
--- <namespace>_G.isr.node</namespace>
--- <license>http://www.isr.cc/licenses/Gnu Lesser General Public License.pdf</license>
--- <history date="06/21/08" by="David Hary" revision="1.00.30948x">
--- Copyright ? 2007-2008 by Integrated Scientific Resources, Inc.
--- </history>

do

  local chunkName = "_g.isr.controlBits.tsp"
  require("_g.require.lua" , chunkName )
  require("_g.tables.lua" , chunkName )

  --- <summary>Gets or sets a name space for ISR code.</summary>
  isr = isr or {}

  --- <summary>Gets or sets a name space for ISR controlBits data.</summary>
  isr.controlBits = isr.controlBits or {}

  local Public, Private = isr.controlBits, {}
  -- Get local access to the global environment
  local _G = _G

  -- Declare all public functions as global variables and they will go to 
  -- a separate table automatically. Register this table as the package name. 
  setfenv(1, Public)

		--- <summary>Holds the default control bits configuration.</summary>
	local defaults = {

		nodeNumber = 1,
		initialValue = 0,
		finalValue = 0,
		writeProtect = _G.isr.digio.allProtected

		}

	--- <summary>Holds an alias of the digital I/O command.</summary>
	local outputBits = _G.isr.digio.outputBits

	--- <summary>Holds the current control bits configuration.</summary>
	values = _G.table.copy( defaults ) 

	--- <summary>
	--- Set control bits to the default configuration.
	--- </summary>
  reset = function()

		values  = _G.table.copy( defaults ) 

		return

	end

  --- <summary>Constructs a new control bits configuration for a digital I/O subsystem.</summary>
  --- <returns>A new control bits configuration for a digital I/O subsystem.
  --- </returns>
  --- <param name="initialValue">Specifies the initial bit value.</param>
  --- <param name="finalValue">Specifies the final bit value.</param>
  --- <param name="writeProtect">Specifies the mask for protecting the output.  Only those bits
  --- with their write proptect value set to 0 are written out.</param>
  new = function( nodeNumber, initialValue , finalValue , writeProtect ) 

		if nodeNumber == nil or initialValue == nil or finalValue == nil then

		else

			reset()
			values.nodeNumber = nodeNumber
	    values.initialValue = initialValue
	    values.finalValue = finalValue
	    values.writeProtect = writeProtect

  	end

		return _G.table.copy( values ) 

  end

  --- <summary>Sets the final digital I/O bits.</summary>
  --- <param name="digio">Specifies reference to a digio subsystem.</param>
  --- <param name="controlBits">Specifies reference to a control bits configuration.</param>
  applyFinal = function( digio , controlBits ) 

    --- write the final value
    outputBits( digio ,  controlBits.finalValue , controlBits.writeProtect  )
 
    return 
 
  end

  --- <summary>Sets the initial digital I/O bits.</summary>
  --- <param name="digio">Specifies reference to a digio subsystem.</param>
  --- <param name="controlBits">Specifies reference to a control bits configuration.</param>
  applyInitial = function( digio , controlBits ) 

    --- write the initial value
    outputBits( digio ,  controlBits.initialValue , controlBits.writeProtect  )
 
    return 
 
  end

  -- controlBits Class Definition end.

  -- return was commented out and the reset of the environment was added to fix
  -- the problem of packages not loading in a configuration sequence.
  _G.setfenv(1, _G)

 
  -- Store chunck name at a standard location for require() to look it up.
  _G._LOADED[chunkName]=true

end
--- <summary>
--- Creates and controls channel switching. 
--  This configuration is used for testing to define
--- the channels to close when starting a test or close or open when ending a test.</summary>
--- <remarks></remarks>
--- <namespace>_G.isr.node</namespace>
--- <license>http://www.isr.cc/licenses/Gnu Lesser General Public License.pdf</license>
--- <history date="06/21/08" by="David Hary" revision="1.00.30948x">
--- Copyright ? 2007-2008 by Integrated Scientific Resources, Inc.
--- </history>

do

  local chunkName = "_g.isr.switching.tsp"

	require("_g.require.lua" , chunkName )
  require("_g.isr.channel.tsp" , chunkName )

  --- <summary>Gets or sets a name space for ISR code.</summary>
  isr = isr or {}

  --- <summary>Gets or sets a name space for ISR switching data.</summary>
  isr.switching = isr.switching or {}

  local Public, Private = isr.switching, {}
  -- Get local access to the global environment
  local _G = _G
  -- Declare all public functions as global variables and they will go to 
  -- a separate table automatically. Register this table as the package name. 
  setfenv(1, Public)

		--- <summary>Holds the default configuration.</summary>
	local defaults = {

		nodeNumber = 1, 
		initialChannelList = '1001,1031',
		finalChannelList = '1002,1032'

		}

	--- <summary>Holds an alias of the channel open command.</summary>
	local open = _G.isr.channel.open

	--- <summary>Holds an alias of the channel close command.</summary>
	local close = _G.isr.channel.close

	--- <summary>Holds the current configuration.</summary>
	values = _G.table.copy( defaults ) 

	--- <summary>
	--- Set current configuration to default.
	--- </summary>
  reset = function()

		values  = _G.table.copy( defaults ) 

		return

	end

  --- <summary>Constructs a new switching configuration for a channel.</summary>
  --- <returns>A new switching configuration for a channel.
  --- </returns>
  --- <param name="nodeNumber">Specifies the node number for the channel to use for this configuration.</param>
  --- <param name="initialChannelList">Specifies the list of channels to close when starting
  --- a test. For example '1001:1005, 3003, mychans' or '2001, 2913'.  The sequencer issues the 
  --- command channel.exclusiveclose().</param>
  --- <param name="finalChannelList">Specifies the list of channels to close when ending
  --- a test.  For example '1001:1005, 3003, mychans' or '2001, 2913'.  The sequencer issues the 
  --- command channel.exclusiveclose(). If empty, this opens the initial channel list.</param>
	--- <remarks>
	--- Test code:
	--- print( isr.switching.values.initialChannelList ) 
	--- t1 = isr.switching.new()
	--- print( t1.initialChannelList ) 
	--- </remarks>
  new = function( nodeNumber , initialChannelList , finalChannelList ) 

		if nodeNumber == nil or initialChannelList == nil or  finalChannelList == nil then

		else

			reset()
			values.nodeNumber = nodeNumber
	    values.initialChannelList = initialChannelList
	    values.finalChannelList = finalChannelList

		end

		return _G.table.copy( values ) 

  end

  --- <summary>Closes the final channel list or, if empty, opens the initial channel list.</summary>
  --- <param name="channel">Specifies reference to a channel subsystem.</param>
  --- <param name="switching">Specifies reference to the switching configuration.</param>
  applyFinal = function( channel , switching ) 

    if switching == nil then

    elseif switching == '' then

      -- open the initial channel list.
      open( channel , switching.initialChannelList )
 
    else 

      -- close the final channel list.
      close( channel , switching.finalChannelList )

    end
 
    return 
 
  end

  --- <summary>Closes the initial channel list.</summary>
  --- <param name="channel">Specifies reference to a channel subsystem.</param>
  --- <param name="switching">Specifies reference to the switching configuration.</param>
  applyInitial = function( channel , switching ) 

    if switching == nil then

    elseif switching == '' then

    else 

      close( channel , switching.initialChannelList )
 
    end
 
    return 
 
  end

  -- switching Class Definition end.

  -- return was commented out and the reset of the environment was added to fix
  -- the problem of packages not loading in a configuration sequence.
  _G.setfenv(1, _G)
  --  return Public

  -- Store chunck name at a standard location for require() to look it up.
  _G._LOADED[chunkName]=true

end
--- <summary>
--- Defines a TSP Instrument Status Message.</summary>
--- <remarks>
--- TSP Messages are designed to augment the service request messaging.
--- This may be required whenever the SRQ messaging is insufficient due to
--- the fact that the SRQ messages are unable to report on individual
--- units or nodes.   <p>
---                   </p><p>
--- With TSP only a single register is available for displaying
--- the status of one or more nodes with one or more units (SMU).
--- Thus the master is unable to report status on each node or unit.
--- For example, the master can raise only a single OPC flag. Thus there is
--- now way to tell which unit finished.  Only that an operation finished.
--- In that case, the output message must be much simpler more like the
--- SRQ bit but for the entire operation rather than the specific command.
--- We need to know the node, unit, and status values.  That could be
--- followed by contents or data.
---                   </p><p>
--- Message Structure:
---                   </p><p>
--- Each TSP message consists of a premable and potential follow up messages.
---                   </p><p>
--- Preamble:
---                   </p><p>
--- The preable is designed to by succinct providing minimal sufficient
--- information to determine status and what to do next. To accomplish this,
--- without reinventing much, the messaging system reports the follwing
--- register information for the node or the unit:
---                   </p><p>
--- Service Request Register byte: SRQ, status byte, STB, or status.condition
---                   </p><p>
--- Status Register Byte:  ESR, or event status register, or status.standard.event
---                   </p><p>
--- Finally the information included a message available, data avaialble,
--- and buffer available bits.  These help determine whether additional
--- informaion is already in the output queue or is in the messaging queue.
---                   </p><p>
--- Format:  All status infroamtion is in Hex as follows:
---                   </p><p>
--- NODE , UNIT , STB , ESR , INFO [, CONTENTS
---   40 ,    2 ,  BF ,  FF , FFFF [, FF, message]
---                   </p><p>
--- Contents:
---                   </p><p>
--- Message contents consists of a message type number following
--- by a message contents.
---                   </p><p>
--- TYPE, MESSAGE
---   FF, some text
---                   </p>
--- </remarks>
--- <namespace>isr.vi.sync</namespace>
--- <license>http://www.isr.cc/licenses/Gnu Lesser General Public License.pdf</license>
--- <history date="03/21/07" by="David Hary" revision="1.00.2636.x">
--- Copyright ? 2007-2008 by Integrated Scientific Resources, Inc.
--- </history>

do

	local chunkName = "_g.isr.statusMessage.tsp"

  require("_g.require.lua" , chunkName )

	--- <summary>Gets or sets a name space for ISR code.</summary>
	isr = isr or {}

	--- <summary>Gets or sets a the ISR VI Status Message.</summary>
  --- <remarks></remarks>
  --- <history date="03/21/07" by="David Hary" revision="1.00.2636.x">
  --- Copyright ? 2007-2008 by Integrated Scientific Resources, Inc.
  --- </history>
	isr.statusMessage = isr.statusMessage or {}

  local Public, Private = _G.isr.statusMessage, {}
  -- Get local access to the global environment
  local _G = _G
  -- Declare all public functions as global variables and they will go to 
  -- a separate table automatically. Register this table as the package name. 
  setfenv(1, Public)

  --- <summary>Enumerates the TSP Message Type.  This is set as system flags to
  --- allow combining types for detecting a super structure.  For example,
  --- data avaialbe is the sum of binary and ascii data available bits.</summary>
  Types = 
    { 
      --- <summary>0x001. Sequence Instrument status message.</summary>
      sequence = 2 ^ 0,
      --- <summary>not defined.</summary>
      none = 0
    }

  --- <summary>Enumerates the TSP Instrument status.</summary>
  InfoBits =
    {
    --- <summary>0x0001. New message.  Not yet handled.</summary>
    newMessage = 2 ^ 0,
 
    --- <summary>0x0002. Debug message.  Debug messegaes always have
    --- Contents following the information register.
    --- .</summary>
    debugMessage = 2 ^ 1,
 
    --- <summary>0x0004. Non zero if unit or node is still active.</summary>
    tspActive = 2 ^ 2,
 
    --- <summary>0x0008. Non zero if unit or node had an error.</summary>
    tspError = 2 ^ 3,
 
    --- <summary>0x0010. Source function in compliance.</summary>
    compliance = 2 ^ 4,
 
    --- <summary>0x0020. Non zero if unit has taken new ?chunks? of data in its
    --- buffer.</summary>
    dataAvailable = 2 ^ 5,

    --- <summary>0x0000. not defined.</summary>
    none = 0
    }
 
	--- <summary>Gets or sets the one-based node number.</summary>
	nodeNumber = 0

	--- <summary>Gets or sets the one-based unit number.</summary>
	unitNumber = 0

	---<summary>Gets or sets the service request <see cref="StatusRegisterBits">status bits</see>.</summary>
	serviceStatus = 0

	--- <summary>Gets or sets the standard event <see cref="StandardEventRegisterBits">status bits</see>.</summary>
	standardStatus = 0

	--- <summary>Gets or sets the device information <see cref="StatusMessage.InfoBits">info status bits</see>.</summary>
	activeStatus = InfoBits.none

	--- <summary>Gets or sets the <see cref="StatusMessage.Types">message type</see>.</summary>
	messageType = Types.none

	--- <summary>Gets or sets the message contents.</summary>
	contents = nil

	--- <summary>Gets or sets the last message that was sent (printed).</summary>
	lastMessage = nil

  --- <summary>Sends the message.</summary>
	send =  function( ) 

		-- gather the the node status information
    local status 
    if nodeNumber == 0 then
    	status = _G.localnode.status
    else
    	status = _G.isrNodes[ nodeNumber ].status
    end 
    serviceStatus = status.request_event
    standardStatus = status.standard.event
    -- tag the message as new
    activeStatus = activeStatus  + InfoBits.newMessage
    -- build the message string.
    lastMessage = _G.string.format("%X,%X,%X,%X,%X", 
          nodeNumber , unitNumber , serviceStatus , standardStatus , activeStatus )
    if contents ~= nil then
      lastMessage = _G.string.format("%s,%X,%s", lastMessage , messageType , contents)
    end 
    _G.print(lastMessage)

  end 

-- StatusMessage Class definition end.

  -- return was commented out and the reset of the environment was added to fix
  -- the problem of packages not loading in a configuration sequence.
  _G.setfenv(1, _G)
  --  return Public

  -- Store chunck name at a standard location for require() to look it up.
  _G._LOADED[chunkName]=true

end
--- <summary>
--- Defines timeouts for the test sequencer timeouts.
--- </summary>
--- <namespace>_G</namespace>
--- <license>http://www.isr.cc/licenses/Gnu Lesser General Public License.pdf</license>
--- <history date="04/18/07" by="David Hary" revision="1.00.2664.x">
--- Copyright ? 2007-2008 by Integrated Scientific Resources, Inc.
--- </history>

do

	local chunkName = "_g.isr.sequencer.timeouts.tsp"

  require("_g.require.lua" , chunkName )
  require("_g.tables.lua" , chunkName )

	--- <summary>Gets or sets a name space for ISR code.</summary>
	isr = isr or {}

	--- <summary>Gets or sets a name space for ISR VI Sequencer code.</summary>
	isr.sequencer = isr.sequencer or {}

  local Public, Private = isr.sequencer, {}
  -- Get local access to the global environment
  local _G = _G
  -- Declare all public functions as global variables and they will go to 
  -- a separate table automatically. Register this table as the package name. 
  setfenv(1, Public)

	--- <summary>Sets the timeouts table.</summary>
	timeouts = {}

	--- <summary>Holds the default sequence properties.</summary>
	local defaults = {

    trigger = 10,
    set = 0.1,
    closing = 0.1,
    contactCheck = 0.1,
    source = 0.1,
    measure = 0.2,
    bias = 0.1,
    opening = 0.1,
    complete = 0.1

		}

	--- <summary>Holds the current timeouts.</summary>
	timeouts.values = _G.table.copy( defaults ) 

  --- <summary>Constructor.</summary>
  --- <property name="trigger">Gets or sets the time to wait for an external trigger.</property>
  --- <property name="restore">Gets or sets the time to wait for restore to complete.</property>
  --- <property name="source">Gets or sets the the time to wait for all sources to output across all nodes.
	--- Must be greater than the maximum source delay differential
	--- across all node SMUs.</property>
  --- <property name="measure">Gets or sets the time to wait for for all measurements to complete across all nodes.
	--- Must be greater than the maximum NPLC times line frequency differential
	--- across all node SMUs.</property>
  --- <property name="bias">Gets or sets the time to wait for sources to output bias levels across all nodes.
	--- Must be greater than the maximum source change time.</property>
  timeouts.new = function()

		return _G.table.copy( timeouts.values ) 

  end

	--- <summary>
	--- Restore the time out values to the default values.
	--- </summary>
  timeouts.reset = function()

		timeouts.values = _G.table.copy( defaults ) 

	end

  _G.setfenv(1, _G)

  -- Store chunck name at a standard location for require() to look it up.
  _G._LOADED[chunkName]=true

end
--- <summary>
--- Defines test sequence attributes.
--- </summary>
--- <namespace>_G</namespace>
--- <license>http://www.isr.cc/licenses/Gnu Lesser General Public License.pdf</license>
--- <history date="04/25/07" by="David Hary" revision="1.00.2671.x">
--- Copyright ? 2007-2008 by Integrated Scientific Resources, Inc.
--- </history>

do

	local chunkName = "_g.isr.sequencer.sequence.tsp"

  require("_g.require.lua" , chunkName )
  require("_g.tables.lua" , chunkName )

	--- <summary>Gets or sets a name space for ISR code.</summary>
	isr = isr or {}

	--- <summary>Gets or sets a name space for ISR VI Sequencer code.</summary>
	isr.sequencer = isr.sequencer or {}

  local Public, Private = isr.sequencer, {}
  -- Get local access to the global environment
  local _G = _G
  -- Declare all public functions as global variables and they will go to 
  -- a separate table automatically. Register this table as the package name. 
  setfenv(1, Public)

	--- <summary>Holds the sequence table.</summary>
	sequence = {}

	--- <summary>Holds the default sequence properties.</summary>
	local defaults = {

  	--- <summary>Specifies the trigger line for receiving triggers from an 
  	--- external trigger handler if any.</summary>
		armLineNumber = 2,

  	--- <summary>Specifies the arm mode as either falling or rising.</summary>
		armMode = _G.digio.TRIG_RISING,

  	--- <summary>True to have the controller output a start trigger on the arm line.
  	--- This is designed for simulation mode to start the test by triggering the arm line.
  	--- </summary>
		isOutputArmTrigger = false,

  	--- <summary>Specifies the trigger line for outputing triggers to the 
  	--- external trigger handler.</summary>
		triggerLineNumber = 1,

  	--- <summary>Specifies the trigger mode as either falling or rising.</summary>
		triggerMode = _G.digio.TRIG_FALLING,

  	--- <summary>Specifies the pulse width.</summary>
		triggerPulseWidth   = 10E-6,

   	--- <summary>Specifies the trigger lane for node handshake.
  	--- Per Andy C. use only lanes 1 and 2 as lane 3 is prone to cross talk.</summary>
		triggerLaneNumber = 1,

   	--- <summary>Specifies the trigger lane for aborting. Set lane number to nil to
   	--- forgo the abort code.</summary>
		abortLaneNumber = 2,

  	--- <summary>True to turn on the SMU values for all tests.
  	--- </summary>
		outputsAlwaysOn = true,

  	--- <summary>Gets or sets the display level for the instrument screen.</summary>
		displayLevel = _G.isr.display.DisplayLevel.errors,

  	--- <summary>Specifies the condition telling if the sequence is done.</summary>
		isDone = false,

  	--- <summary>Specifies the condition telling if the sequence exited with an error.</summary>
		isError = false,

  	--- <summary>Specifies the condition telling if the sequence was aborted.</summary>
		isAborted = false,

  	--- <summary>Specifies the error message.</summary>
		errorMessage = '',

  	--- <summary>Specifies the condition telling if the sequence exited with remote errors.</summary>
		isRemoteErrors = false,

  	--- <summary>Specifies the remote error message.</summary>
		remoteErrorMessages = '',

  	--- <summary>Specifies the condition telling if the sequence should send error messages
  	--- This is useful with TSB.  Otherwise, the PC can check on errors.</summary>
		isSendErrorMessages = true,

  	--- <summary>Specifies the condition telling if the sequence exited with remote errors.</summary>
		autoGarbageCollection = true,

  	--- <summary>Set automatic garbage collection to every 60 seconds.</summary>
		garbageCollectionPeriod = 60,

		dummy = 0

		}

	--- <summary>Holds the current sequence properties.</summary>
	sequence.values = _G.table.copy( sequence.defaults ) 

  --- <summary>Constructor.  Constructs a new sequence set based on the current values.</summary>
  --- <property name="armLineNumber">Specifies the trigger line for receicing triggers from the 
 	--- external trigger handler.
  ---	</property>
  --- <property name="armMode">Specifies the arm mode as either falling or rising.
  ---	</property>
  --- <property name="triggerLineNumber">Specifies the trigger line for outputing triggers to the 
 	--- external trigger handler.
  ---	</property>
  --- <property name="triggerMode">Specifies the trigger mode as either falling or rising.
  ---	</property>
  --- <property name="triggerPulseWidth">Specifies the pulse width.
  ---	</property>
  --- <property name="triggerLaneNumber">Specifies the trigger lane for node handshake.
 	--- Per Andy C. use only lanes 1 and 2 as lane 3 is prone to cross talk.
  ---	</property>
  --- <property name="displayLevel">Define the verbosity of the isntrument screen.
  ---	</property>
  --- <property name="isOutputArmTrigger">True to have the controller output a start trigger.
 	--- This is designed for simulation mode to start the test by triggering the arm line.
  ---	</property>
  --- <property name="isDone">Specifies the condition for teliing if the sequence is done.
  ---	</property>
  --- <property name="isError">Specifies the condition for teliing if the sequence exited with an error.
  ---	</property>
  --- <property name="errorMessage">Specifies the error message.
  ---	</property>
  sequence.new = function()

    return _G.table.copy( sequence.values ) 
 
  end

	--- <summary>
	--- Resets to the sequence values to the default sequence.
	--- </summary>
	sequence.reset  = function()

		sequence.values = _G.table.copy( defaults ) 

	end

  _G.setfenv(1, _G)

  -- Store chunck name at a standard location for require() to look it up.
  _G._LOADED[chunkName]=true

end
--- <summary>
--- Base support for Sequencer.</summary>
--- <namespace>_G</namespace>
--- <license>http://www.isr.cc/licenses/Gnu Lesser General Public License.pdf</license>
--- <history date="04/23/07" by="David Hary" revision="1.00.2669.x">
--- Copyright ? 2007-2008 by Integrated Scientific Resources, Inc.

do

	local chunkName = "_g.isr.sequencer.base.tsp"

  require("_g.require.lua" , chunkName )
  require("_g.isr.display.tsp" , chunkName )
  require("_g.isr.node.tsp" , chunkName )

	--- <summary>Gets or sets a name space for ISR code.</summary>
	isr = isr or {}

	--- <summary>Gets or sets a name space for ISR VI Sequencer code.</summary>
	isr.sequencer = isr.sequencer or {}

  local Public, Private = isr.sequencer, {}
  -- Get local access to the global environment
  local _G = _G
  -- Declare all public functions as global variables and they will go to 
  -- a separate table automatically. Register this table as the package name. 
  setfenv(1, Public)

	--- <summary>Returns the ISR Sequencer version.</summary>
	version = function() 
		return "3.0.3300"
	end
	
	--- <summary>Enumerates the trigger conditions.</summary>
	TriggerMode = {

		--- <summary>Closing Relays.</summary>
		closing = 1,

		--- <summary>Checking contacts.</summary>
		contactCheck = 2,

		--- <summary>Source turned on.</summary>
		source = 4,

		--- <summary>Measure started turned on.</summary>
		measure = 8, 

		--- <summary>Bias started.</summary>
		bias = 16,

		--- <summary>Opening relays.</summary>
		opening = 32,

		--- <summary>Test done.</summary>
		finished = 64,

		--- <summary>Group done.</summary>
		--- each config now can trigger thus group is the same as 
		--- telling the last test config to issue a trigger. 
		group = 128,

		--- <summary>No Trigger.</summary>
		none = 0 
		}

	  --- <summary>Returns true if the trigger value invludes a bias trigger.</summary>
		TriggerMode.onBias = function( value ) 
			return _G.bit.bitand( value , TriggerMode.bias ) ~= 0 
		end

	  --- <summary>Returns true if the trigger value invludes a closing trigger.</summary>
		TriggerMode.onClosing = function( value ) 
			return _G.bit.bitand( value , TriggerMode.closing ) ~= 0 
		end

	  --- <summary>Returns true if the trigger value invludes a contact check trigger.</summary>
		TriggerMode.onContactCheck = function( value ) 
			return _G.bit.bitand( value , TriggerMode.contactCheck ) ~= 0 
		end

	  --- <summary>Returns true if the trigger value invludes a test done trigger.</summary>
		TriggerMode.onFinished = function( value ) 
			return _G.bit.bitand( value , TriggerMode.finished ) ~= 0 
		end

	  --- <summary>Returns true if the trigger value invludes a group trigger.</summary>
		TriggerMode.onGroup = function( value ) 
			return _G.bit.bitand( value , TriggerMode.group ) ~= 0 
		end

	  --- <summary>Returns true if the trigger value invludes a measure trigger.</summary>
		TriggerMode.onMeasure = function( value ) 
			return _G.bit.bitand( value , TriggerMode.measure ) ~= 0 
		end

	  --- <summary>Returns true if the trigger value invludes an opening trigger.</summary>
		TriggerMode.onOpening = function( value ) 
			return _G.bit.bitand( value , TriggerMode.opening ) ~= 0 
		end

	  --- <summary>Returns true if the trigger value invludes no triggers.</summary>
		TriggerMode.isNone = function( value ) 
			return value == 0 
		end

	  --- <summary>Returns true if the trigger value invludes a source mode trigger.</summary>
		TriggerMode.onSource = function( value ) 
			return _G.bit.bitand( value , TriggerMode.source ) ~= 0 
		end

	--- <summary>Enumerates the trigger conditions.</summary>
	ArmMode = {
		--- <summary>Wait for an arm.</summary>
		wait = 1,
		--- <summary>No arm.</summary>
		none = 0 
		}

		--- <summary>Returns true if the arm value invludes a wait flag.
		--- Namely the test should wait for a trigger to start.</summary>
		ArmMode.onWait = function( value ) 
			return _G.bit.bitand( value , ArmMode.wait ) ~= 0 
		end

		--- <summary>Returns true if the arm value invludes no triggers.</summary>
		ArmMode.isNone = function( value ) 
			return value == 0 
		end

	--- <summary>Holds the sequence state enumeration.</summary>
	SequenceState = {

		--- <summary>Sequence not started.</summary>
		idle = 0,

		--- <summary>Sequence ready to start.</summary>
		ready = 1,

		--- <summary>Sequence set to receive trigger.  This is the state to 
		--- return to for starting the next test.</summary>
		set = 2,

		--- <summary>Waiting for arm (trigger input).</summary>
		waitingArm = 3,

		--- <summary>Waiting for relay closure, control bits and source-measure restore.</summary>
 		waitingClosing = 4,

		--- <summary>Waiting for contact check.</summary>
 		waitingContactCheck = 5,

		--- <summary>Waiting for source on all nodes.</summary>
		waitingSource = 6,

		--- <summary>Waiting for measure on all nodes.</summary>
		waitingMeasure = 7,

		--- <summary>Waiting for bias on all nodes.</summary>
		waitingBias = 8,

		--- <summary>Waiting for bias on all nodes.</summary>
		waitingOpening = 9,

		--- <summary>Ending the test.</summary>
		testEnd = 10,

		--- <summary>Ending the test plan.</summary>
		cycleEnd = 11,

		--- <summary>Not defined.</summary>
		none = 0 

	}

	--- <summary>Gets or sets the sequencer state.</summary>
	sequencerState = SequenceState.none

	--- <summary>Returns the sequencer test name.</summary>
	SequenceState.name = function( value ) 

		if value == SequenceState.idle then return 'idle'
		elseif value == SequenceState.ready then return 'ready' 
		elseif value == SequenceState.set  then return 'set'
		elseif value == SequenceState.waitingArm  then return 'arming'
		elseif value == SequenceState.waitingClosing  then return 'closing'
		elseif value == SequenceState.waitingContactCheck  then return 'checking'
		elseif value == SequenceState.waitingSource  then return 'sourcing'
		elseif value == SequenceState.waitingMeasure  then return 'measuring'
		elseif value == SequenceState.waitingBias  then return 'biasing'
		elseif value == SequenceState.waitingOpening  then return 'opening'
		elseif value == SequenceState.testEnd  then return 'test ended'
		elseif value == SequenceState.cycleEnd  then return 'cycle ended'
		elseif value == SequenceState.none  then return 'unknown'
		else
			return 'unknown'
		end

	end

	--- <summary>Returns the sequencer test name.</summary>
	SequenceState.currentName = function() 
		return SequenceState.name(sequencerState)
	end

	--- <summary>Gets or sets the node Sequence definitions.  Each node
	--- starts with the same sequence settings.  The nodes stores the 
	--- sequence outcomes in this element.</summary>
	nodeSequence = {}

	--- <summary>Gets or sets the timeout end time.</summary>
	local _endTime = 0

	--- <summary>Starts a time span timer.</summary>
	timeSpannerStart = function( duration ) 

		-- add benchmark timing to the node sequence data.
		nodeSequence.startTime[ sequencerState ] = _G.os.clock()

		_endTime = _G.os.clock() + duration

	end

	--- <summary>Returns true when the duration is over.</summary>
	timeSpannerDone = function() 
		return _G.os.clock() > _endTime
	end

	--- <summary>Gets or sets reference to the local node channel.</summary>
	channel = nil

	--- <summary>Gets or sets the aliases for control bits.</summary>
	initialControlBits = _G.isr.controlBits.applyInitial
	finalControlBits = _G.isr.controlBits.applyFinal

	--- <summary>Gets or sets reference to the local node digital I/O subsystem.</summary>
	digio = nil

	--- <summary>Gets or sets reference to the isr display level.</summary>
	errorsDisplayLevel = _G.isr.display.DisplayLevel.errors
	infoDisplayLevel = _G.isr.display.DisplayLevel.info
	warningsDisplayLevel = _G.isr.display.DisplayLevel.warnings
	verboseDisplayLevel = _G.isr.display.DisplayLevel.verbose

	--- <summary>Gets or sets the alias for display message.</summary>
	displayMessageIf = _G.isr.display.showMessageIf

	--- <summary>Gets or sets the local node family alias.</summary>
	family = 0

	--- <summary>Gets or sets reference to the local node.</summary>
	localNode = nil

	--- <summary>Gets or sets reference to the node meta data.</summary>
	nodeMeta = nil

	--- <summary>Gets or sets reference to the test configuration for the nodes.</summary>
	nodeTests = nil

	--- <summary>Gets or sets reference to the data for all tests.</summary>
	nodeTestsData = nil

	--- <summary>Gets or sets the aliases for control bits.</summary>
	initialSwitching = _G.isr.switching.applyInitial
	finalSwitching = _G.isr.switching.applyFinal

	--- <summary>local prompt message.</summary>
	prompt = ''

	--- <summary>alias the string format.</summary>
	local stringFormat = _G.string.format

	--- <summary>builds the prompt based on the current test number.</summary>
	buildPrompt = function()

		if nodeSequence.displayLevel > 0 then

			-- initialize the test prompt showing the test number and test count.
			prompt = stringFormat("%d/%d: ", testNumber , testCount)

		else

			-- if display level is totally off, init to node number
			prompt = stringFormat("n%d: ", localNode.number )

		end

		return prompt

	end

	--- <summary>Displays the current state.</summary>
	updateDisplayPrompt = function()

		if nodeSequence.displayLevel > 0 then

			-- initialize the test prompt showing the test number and test count.
			prompt = stringFormat("%d/%d: ", testNumber , testCount)
			displayMessageIf( infoDisplayLevel , prompt .. SequenceState.currentName() )

		end

	end

	--- <summary>
	--- Creates aliases to improve speed significantly. 
	--- Aliases shaves about 20 usec off when executing TSP commands.  The timing
	--- effects on non-tsp commands is different because non-time commands have
	--- less overhead than TSP commands.
	--- </summary>
	createAliases = function()

		-- alias local node
		localNode = _G.localnode

		-- select the node meta data
		nodeMeta = _G.isrMeta[ localNode.index ]

		-- select the test sequence for the local node.
  	nodeSequence = nodeMeta.sequence 

  	-- clear storage for start times.
  	nodeSequence.startTime = {}

  	-- set the display level
		_G.isr.display.level = nodeSequence.displayLevel

		-- display message
		displayMessageIf( infoDisplayLevel , 'creating aliases')

		-- alias local node digital I/O subsystem
		digio = localNode.digio

		-- alias local node channel
		channel = localNode.channel

		-- alias local node family
		family = localNode.family

		-- selects the tests for the node.
		nodeTests = nodeMeta.tests 

		-- selects the tests data for the node.
		nodeTestsData = nodeMeta.data 

		-- get the test count
		testCount = nodeTests.count

		-- select the trigger lane.
		local trigLane = _G.tsplink.trigger[ nodeSequence.triggerLaneNumber ]

		-- Controller / Remote synchronization lane; input & output. 
		laneAssert 	= trigLane.assert 
		laneWait 		= trigLane.wait 
		laneClear		= trigLane.clear

		if nodeSequence.abortLaneNumber then

			-- select the abort lane.
			local abortLane = _G.tsplink.trigger[ nodeSequence.abortLaneNumber ]

			-- Controller / Remote synchronization lane; input & output. 
			abortLaneAssert 	= abortLane.assert 
			abortLaneWait 		= abortLane.wait 
			abortLaneClear		= abortLane.clear

		else

			abortLaneAssert 	= nil
			abortLaneWait 		= nil
			abortLaneClear		= nil

		end

		-- build the prompt
		buildPrompt()

		-- display message
		displayMessageIf( infoDisplayLevel , prompt .. 'initialized')

	end

	--- <summary>Prepares external triggering.</summary>
	--- <remarks>
	--- Line 1: Arm. Trigger IN from system controller.  Waits for a rising edge.
	--- Line 2: Trigger. Trigger OUT to the system controller; a 10 usec high-low-high pulse.
	--- </remarks>
	local primeTriggerLines = function()

		local armLine = _G.digio.trigger[ nodeSequence.armLineNumber ]

		-- set arm mode.
		armLine.mode = nodeSequence.armMode
		armLine.pulsewidth   = nodeSequence.triggerPulseWidth

		-- create aliases for the arm, i.e., trigger input from PC.
		armWait = armLine.wait
		armClear = armLine.clear

		local trigLine = _G.digio.trigger[ nodeSequence.triggerLineNumber ]
		trigLine.mode = nodeSequence.triggerMode 
		trigLine.pulsewidth   = nodeSequence.triggerPulseWidth

		-- create aliases for the trigger output to PC.
		trigAssert = trigLine.assert

	end

	--- <summary>
	--- Initialize the sequence.  Must be executed after loading the
	--- scripts, setting the test sequences, and setting the node globals
	--- on all nodes.
	--- </summary>
	initialize = function( tslNode )

		if tslNode == nil then

			for i , n in _G.ipairs( _G.isrNodes ) do 
					initialize( n ) 
			end

		else

			if tslNode.isController then

				-- save display modes
				_G.isr.node.storeScreens()

				-- clear the test number.
				testNumber = 0

				-- create aliases
				createAliases()

				-- Put each node in its own group.
				-- this is already done is isr.tsplink.reset()
				-- _G.isr.node.assignGroups() 

				-- display message
				displayMessageIf( infoDisplayLevel , 'priming lines')

				-- prepare external triggering
				primeTriggerLines()

				-- Setup tsp triggering
				_G.isr.node.primeLanes( nodeSequence.triggerLaneNumber )

				if nodeSequence.abortLaneNumber then

					-- Setup tsp triggering for aborting
					_G.isr.node.primeLanes( nodeSequence.abortLaneNumber )

				end

				-- display message
				displayMessageIf( infoDisplayLevel , 'initialized')

			else

				-- clear the test number.
				tslNode.execute("isr.sequencer.testNumber = 0")

				-- wait for all commands to go through
				_G.waitcomplete( tslNode.groupNo or 0 )

				if sequence.values.displayLevel >= _G.isr.display.DisplayLevel.info then
					-- display message
					_G.isr.node.displayMessage( tslNode  , 'creating aliases')
				end

				-- Send the TSP code chunk to the remote node via the TSP-Link & run the function that creates aliases 
				-- on the remote nodes; wait for the remote node to receive and process/execute the chunk before proceeding.
				tslNode.execute("isr.sequencer.createAliases()")
				_G.waitcomplete( tslNode.groupNo or 0 )

				-- release the node lane
				tslNode.execute( 'isr.sequencer.laneAssert()' )
				_G.waitcomplete( tslNode.groupNo or 0 )

				-- wait for all commands to go through
				_G.waitcomplete( tslNode.groupNo or 0 )

			end

		end

	end

  _G.setfenv(1, _G)

  -- Store chunck name at a standard location for require() to look it up.
  _G._LOADED[chunkName]=true

end


--- <summary>
--- Defines how output triggers are handled.
--- </summary>
--- <namespace>_G</namespace>
--- <license>http://www.isr.cc/licenses/Gnu Lesser General Public License.pdf</license>
--- <history date="04/18/07" by="David Hary" revision="1.00.2664.x">
--- Copyright ? 2007-2008 by Integrated Scientific Resources, Inc.
--- </history>

do

	local chunkName = "_g.isr.sequencer.triggers.tsp"

  require("_g.require.lua" , chunkName )
  require("_g.tables.lua" , chunkName )
  require("_g.isr.sequencer.base.tsp" , chunkName )

	--- <summary>Gets or sets a name space for ISR code.</summary>
	isr = isr or {}

	--- <summary>Gets or sets a name space for ISR VI Sequencer code.</summary>
	isr.sequencer = isr.sequencer or {}

  local Public, Private = isr.sequencer, {}
  -- Get local access to the global environment
  local _G = _G
  -- Declare all public functions as global variables and they will go to 
  -- a separate table automatically. Register this table as the package name. 
  setfenv(1, Public)

	--- <summary>Sets the triggers table.</summary>
	triggers = {}

		--- <summary>Holds the default trigger properties.</summary>
	local defaults = {

		arm = ArmMode.wait,
		trig = TriggerMode.source + TriggerMode.measure + TriggerMode.bias + TriggerMode.finished 

		}

	--- <summary>Holds the current triggers.</summary>
	triggers.values = _G.table.copy( defaults ) 

  --- <summary>Constructor.</summary>
  --- <property name="arm">Gets or sets arm mode for waiting for an external trigger.</property>
  --- <property name="trie">Gets or sets trigger mode for outputing a trigger.</property>
  triggers.new = function()

		return _G.table.copy( triggers.values ) 

  end

	--- <summary>
	--- Set the default trigger values.
	--- </summary>
  triggers.reset = function()

		triggers.values  = _G.table.copy( defaults ) 

	end

  _G.setfenv(1, _G)

  -- Store chunck name at a standard location for require() to look it up.
  _G._LOADED[chunkName]=true

end
--- <summary>
--- Defines test sequencer configurations.
--- Eacg test configuration defines how each node will execute a specific test.
--- This includes waiting for an arm, issuing a set of triggers, and making
--- measurements.
--- Each test is capable of waiting for an arm and issuing a variety of triggers.
--- In addition the test sequences through setting a source level, making a measurement, and
--- setting a bias level.  Using bias allows running tests without having to turn outputs off.
--- Test configurations are stored as part of the ISR meta data for the node.  The
--- configuration includes the following tables and values
--- enabled  - Specifies the condition for telling if the test is enabled.  If not,
--- 					 the test handshake is followed without any actions.
--- timeouts - Specifies the test sequence timeouts for wait for completion of trigger, source 
---						 measurement events.
--- triggers - Specifies the triggers issued by each test (could be none) or arms 
---						 expected by each test (relevant only for the controller node). 
--- smus		 - Specifies the SMU configurations plus and enabled flag to tell if the 
---						 the SMU has an active test.
--- </summary>
--- <namespace>_G</namespace>
--- <license>http://www.isr.cc/licenses/Gnu Lesser General Public License.pdf</license>
	--- <history date="04/23/07" by="David Hary" revision="1.00.2669.x">
--- Copyright ? 2007-2008 by Integrated Scientific Resources, Inc.
--- </history>

do

	local chunkName = "_g.isr.sequencer.test.tsp"

  require("_g.require.lua" , chunkName )
  require("_g.isr.sequencer.base.tsp" , chunkName )
  require("_g.isr.sequencer.sequence.tsp" , chunkName )
  require("_g.isr.sequencer.timeouts.tsp" , chunkName )
  require("_g.isr.sequencer.triggers.tsp" , chunkName )

	--- <summary>Gets or sets a name space for ISR code.</summary>
	isr = isr or {}

	--- <summary>Gets or sets a name space for ISR VI Sequencer code.</summary>
	isr.sequencer = isr.sequencer or {}

  local Public, Private = isr.sequencer, {}
  -- Get local access to the global environment
  local _G = _G
  -- Declare all public functions as global variables and they will go to 
  -- a separate table automatically. Register this table as the package name. 
  setfenv(1, Public)

  --- <summary>Gets or sets the data for the node.</summary>
	nodeTestData = {}

  --- <summary>Gets or sets the test configuration for the node.</summary>
	nodeTest = {}

  --- <summary>Gets or sets the current test number.  This is also the index to the test
  --- configuration.</summary>
	testNumber = 0

  --- <summary>Gets or sets the total number of tests.</summary>
	testCount = 0

	--- <summary>Holds the test class table.</summary>
	test = {}

  --- <summary>Constructor.</summary>
  --- <property name="enabled ">Gets or sets the condition for enableling this test.</property>
  --- <property name="timeouts">Gets or sets the timeouts.  These values
  --- must be customized for each node.</property>
  --- <property name="triggers">Gets or sets the triggers.  These values
  --- must be customized for each node.</property>
  --- <property name="smus">Gets or sets the smu configurations.  Issue this 
  --- command after configuring all SMUs on the network.</property>
  --- <property name="smu">Gets or sets reference to the 
  --- <see cref="_G.isr.smus.config.Smu">SMU configuration.</see>.</property>
  --- <property name="timeouts">Gets or sets reference to the sequencer timeouts.</property>
  test.new = function()

  	testNumber = 0
		testCount = 0
  	for n , v in _G.ipairs( _G.isrNodes ) do
			-- clear teh tests 
			local nodeMeta = _G.isrMeta[ n ]
		  nodeMeta.tests = {}
	  	nodeMeta.data = {}
		end

  end

  --- <summary>Reset all to default settings.</summary>
  test.reset = function()
  	testNumber = 0
  	_G.isr.sequencer.triggers.reset()
  	_G.isr.sequencer.timeouts.reset()
  	_G.isr.sequencer.sequence.reset()
  end

  --- <summary>Adds test configurations to all nodes on the network.</summary>
  test.add = function()

  	-- incremenet test number
  	testNumber = testNumber + 1

  	-- retain the test count
  	testCount = testNumber
  	for n , tslNode in _G.ipairs( _G.isrNodes ) do
	
	  	if tslNode.enabled then 

				-- get the meta data for the node.
				local nodeMeta = _G.isrMeta[ n ]

		  	nodeTestData = {}

		  	nodeTest = {}
		 		nodeTest.enabled = true
		  	nodeTest.timeouts = _G.isr.sequencer.timeouts.new()
		  	nodeTest.triggers = _G.isr.sequencer.triggers.new()
		
		  	-- add control bits test configuration if we have 
		  	-- a control bit test defined for this node.
		  	if _G.isr.controlBits.values.nodeNumber == n then
			  	nodeTest.controlBits = _G.isr.controlBits.new()
		  	end
		
		  	-- add switching test configuration if we have 
		  	-- switching defined for this node.
		  	if _G.isr.switching.values.nodeNumber == n then
			  	nodeTest.switching = _G.isr.switching.new()
		  	end
		
		  	-- add smu tests if this is an active smu node.
		  	if tslNode.smus then
		
			  	nodeTestData.smus = {}
			  	nodeTest.smus = {}
		  		for j , smu in _G.ipairs( tslNode.smus ) do

		  			if smu.enabled then
			  		  -- this saves the current SMU configuration for the new test.
			  			local smuTest = _G.isr.smus.config.new( smu )
							smuTest.enabled = true
				  		nodeTest.smus[ j ] = smuTest

							-- set the measurand data.
					  	nodeTestData.smus[ j ] = _G.table.copy( smuTest.measurands )
					
		  			end

		  		end

		  	end
		
	  		-- add the test condiguration to the tests.
		  	nodeMeta.data[ testNumber ] = nodeTestData
		  	nodeMeta.data.count = testCount
		  	nodeMeta.tests[ testNumber ] = nodeTest 
		  	nodeMeta.tests.count = testCount
		  	nodeMeta.sequence = _G.isr.sequencer.sequence.new() 

			end
				
  	end
		return

  end

  --- <summary>Selects a node test configuration.</summary>
  selectNodeTest = function()
		nodeTest = nodeTests[ testNumber ]
		nodeTestData = nodeTestsData[ testNumber ]
		return
	end

	--- <summary>Aliases the ipairs function.</summary>
	local iPairs = _G.ipairs

  --- <summary>Fetches test data from buffers rather than using clobals.</summary>
  --- <remarks>
	--- Benchmarks:
	--- _G.benchmark( "Fetch Buffers: " , isr.sequencer.fetchBuffersData , nil ) 
	--- Tests =  1; Nodes = 2: Fetch Buffers: 0.003296,  0.001038, 0.001190
  --- Tests = 11; Nodes = 2: Fetch Buffers: 0.012695,  0.011719 
	--- Code Tests:
  --- </remarks>
  fetchBuffersData = function()

  	for n , v in iPairs( _G.isrNodes ) do

	  	if v.enabled and not v.isController and v.smus then 

	  		-- we assume that controller data is already in place.
	  		_G.isr.smus.fetchBuffersData( v , _G.isrMeta[ n ].data )
	
			end
				
  	end
		return

  end

  --- <summary>Fetches test data for all tests from all nodes.</summary>
  --- <remarks>
	--- Benchmarks:
	--- _G.benchmark( "Fetch: " ,  isr.sequencer.fetchTestsData , nil ) 
	--- Tests =  1; Nodes = 2: Fetch: 0.007751, 0.011963 
  --- Tests = 10; Nodes = 2: Fetch: 0.038574, 0.040070, 0.039795
  --- Tests = 11; Nodes = 2: Fetch: 0.044922 
	---
	--- 7/29
	--- Tests =  1; Nodes = 2: Fetch: 0.010986, 0.008118
  --- Tests = 10; Nodes = 2: Fetch: 0.038574, 0.040070, 0.039795
	--- _G.benchmark( "Fetch: " ,  _G.getsubglobal , n2 ,  'isr.sequencer.nodeTestsData' )
	--- Tests =  1; Nodes = 1: Fetch: 0.007324, 0.006989
	--- Tests = 10; Nodes = 1: Fetch: 0.039093
	--- Code Tests:
	--- print( _G.isrMeta[ 2 ].data[1].smus[1][1].value )
	--- print( _G.isrMeta[ 2 ].data[1].smus[1][1].lowLimit )
	--- print( _G.isrMeta[ 2 ].data[1].smus[1][1].highLimit )
	--- print( _G.isrMeta[ 2 ].data[1].smus[1][1].isLow )
	--- print( _G.isrMeta[ 2 ].data[1].smus[1][1].isHigh )
  --- </remarks>
  fetchTestsData = function()

 		local remoteData = _G.getsubglobals( _G.isrNodes , 'isr.sequencer.nodeTestsData' ) 
  	for n , v in iPairs( _G.isrNodes ) do
	
	  	if v.enabled and not v.isController then 

	  		-- we assume that controller data is already in place.

				-- get the meta data for the node.
				_G.isrMeta[ n ].data = remoteData[ n ]

				-- get the meta data for the node.
				-- _G.isrMeta[ n ].data = _G.getsubglobal( v , 'isr.sequencer.nodeTestsData' )
		
			end
				
  	end
		return

  end

	--- <summary>Gets or sets the data format.</summary>
	dataFormat = "%+0.6E"

	--- <summary>Aliases the string format function.</summary>
	local stringFormat = _G.string.format

	--- <summary>Packs test data from all subsystems for sending to the PC.</summary>
	--- <returns>Comma separated data stream
	--- </returns>
	--- <remarks>
	---	The data consists of stream of values implicitly index by 
	--- node number, test number, subsystem and measurand.
	--- For example, with three nodes, three tests and two smus per SMU node 
	--- and calc function for the main node we would have:
	--- n1.c1,n1.c2,n1.c3, n1.c4, 
	--- n2.s1.v1, n2.s1.i1, , n2.s2.v1, n2.s2.i1, 
	--- n2.s1.v2, n2.s1.i2, , n2.s2.v2, n2.s2.i2, 
	--- n2.s1.v3, n2.s1.i3, , n2.s2.v3, n2.s2.i3, 
	--- n3.s1.v1, n3.s1.i1, , n3.s2.v1, n3.s2.i1, 
	--- n3.s1.v2, n3.s1.i2, , n3.s2.v2, n3.s2.i2, 
	--- n3.s1.v3, n3.s1.i3, , n3.s2.v3, n3.s2.i3, 
	--- Notes:
	--- 1. The calc can have more than one value per test. 
	--- 2. v1 is voltage measured on test one.
	--- 3. calc is only executed on the controller node after all data are brought in.
	--- Benchmarks:
	--- _G.benchmark( "Pack: " , isr.sequencer.packTestsData , nil )
	--- Tests =  1; Nodes = 2: Pack: 0.000488; 0.000610 
	--- Tests = 10; Nodes = 2: Pack: 0.005493, 0.003784, 0.003540 
	--- </remarks>
	packTestsData = function()
	
	  local appendFormat = "%s," .. dataFormat
	  local dataStream = nil
	  for n , v in iPairs( _G.isrMeta ) do
	
	  	if v.data then 

				for i , t in iPairs( v.data ) do

					if t.smus then

						for j , s in iPairs( t.smus ) do

							for k , m in iPairs( s ) do

								if dataStream then
									dataStream = stringFormat( appendFormat , dataStream , m.value )
								else
									dataStream = stringFormat( dataFormat , m.value )
								end

							end
						end

					end

				end
	
	  	end

	  end
	
		return dataStream or ''

	end

  _G.setfenv(1, _G)

  -- Store chunck name at a standard location for require() to look it up.
  _G._LOADED[chunkName]=true

end
--- <summary>
--- Manages a remote loop.</summary>
--- <namespace>_G</namespace>
--- <license>http://www.isr.cc/licenses/Gnu Lesser General Public License.pdf</license>
--- <history date="04/18/07" by="David Hary" revision="1.00.2664.x">
--- Copyright ? 2007-2008 by Integrated Scientific Resources, Inc.
--- </history>

do

	local chunkName = "_g.isr.sequencer.remote.tsp"

  require("_g.require.lua" , chunkName )
  require("_g.isr.sequencer.test.tsp" , chunkName )

	--- <summary>Gets or sets a name space for ISR code.</summary>
	isr = isr or {}

	--- <summary>Gets or sets a name space for ISR VI Sequencer code.</summary>
	isr.sequencer = isr.sequencer or {}

  local Public, Private = isr.sequencer, {}
  -- Get local access to the global environment
  local _G = _G
  -- Declare all public functions as global variables and they will go to 
  -- a separate table automatically. Register this table as the package name. 
  setfenv(1, Public)

	-- time to wait for controller signal
	local controlDelay = 0.0001

	--- <summary>Alias to the check contact function.</summary>
	local checkContact =  _G.isr.smus.checkContact

	--- <summary>Alias to the buffers clear function.</summary>
	local buffersClear =  _G.isr.smus.buffersClear

	--- <summary>Alias to the biases off function.</summary>
	local biasesOff =  _G.isr.smus.biasesOff

	--- <summary>Alias to the biases on function.</summary>
	local biasesOn =  _G.isr.smus.biasesOn

	--- <summary>Alias to the levels off function.</summary>
	local levelsOff =  _G.isr.smus.levelsOff

	--- <summary>Alias to the levels on function.</summary>
	local levelsOn =  _G.isr.smus.levelsOn

	--- <summary>Alias to the make Measurements function.</summary>
	local makeMeasurements =  _G.isr.smus.makeMeasurements

	--- <summary>Alias to the outputs off function.</summary>
	local outputsOff =  _G.isr.smus.outputsOff

	--- <summary>Alias to the outputs on function.</summary>
	local outputsOn =  _G.isr.smus.outputsOn

	--- <summary>Alias to the outputs not always on.</summary>
	local outputsNotAlwaysOn = nil

	--- <summary>Alias to the config restore function.</summary>
	local restoreConfig = _G.isr.smus.config.restore

	--- <summary>alias the wait complete command.</summary>
	local waitcomplete = _G.waitcomplete

	--- <summary>Wait for completion of operation on the local node.</summary>
	localWaitComplete = function()
		waitcomplete( localNode.groupNo )
	end

  --- <summary>Restores the configuration on all SMUs of the local node
  --- for the current test configuration.</summary>
  restoreLocal = function()
 		for j , smu in _G.ipairs( localNode.smus ) do
			restoreConfig( smu , nodeTest.smus[ j ] )
 		end
		return
	end

	--- <summary>Issues the initial seqeuncing actions.  The controller must
	--- wait for these actions to finish beofre starting the sequence.
	--- </summary>
  --- <benchmark>
  --- _G.benchmark( "On Init: " , exe , 'sq.onInitSequence()' )
  --- On Init:  0.???- 0.0011 
  --- _G.benchmark( "opc: " , exe , 'waitcomplete()' ): opc:  0.0011960 
  --- _G.benchmark( "On Ready: " , sq.onInitSequence , nil )
  --- On Init:
  --- Overhead Total in ms = 
  --- </benchmark>
	onInitSequence = function()

		-- Display the state
		displayMessageIf( verboseDisplayLevel , 'Initializing' )

		-- clear the abort lane
		if nodeSequence.abortLaneNumber then
			abortLaneClear()
		end

		-- clear the synchroniation lane from any previous triggers.
		laneClear()

		-- clear the abort sentinel
		nodeSequence.isAborted = false

	  -- Wait for commands to complete.
	  localWaitComplete() 				 

	end

	--- <summary>Issues the ready seqeunceing actions for.
	--- </summary>
  --- <benchmark>
  --- _G.benchmark( "On Ready: " , exe , 'sq.onReadyActivated()' )
  --- On Ready:  0.001831 - 0.0011 = 0.0008
  --- _G.benchmark( "opc: " , exe , 'waitcomplete()' ): opc:  0.0011960 
  --- _G.benchmark( "On Ready: " , sq.onReadyActivated , nil )
  --- On Ready:  0.001282, 0.000549
  --- Overhead Total in ms = 0.8
  --- </benchmark>
	onReadyActivated = function()

		-- Display the state
		if nodeSequence.displayLevel > 0  then
			displayMessageIf( errorsDisplayLevel , buildPrompt() .. 'Sequencing' )
		else
			displayMessageIf( 0 , "Sequencing" ) 
		end

	  -- Wait for commands to complete.
	  localWaitComplete() 				 

	end

	--- <summary>Saves the last garbacge collection time.</summary>
	local lastGarbageCollectionTime = _G.os.clock()

	--- <summary>Issues the seqeunceing action for entering into the waiting arm state.
	--- </summary>
  --- <benchmark>
  --- _G.benchmark( "On Waiting Arm: " , exe , 'sq.onWaitingArmActivated()' )
  --- On Waiting Arm:  0.014043, 0.013189 , 0.009949 ?
  --- _G.benchmark( "On Waiting Arm: " , sq.onWaitingArmActivated , nil )
  --- On Waiting Arm:  0.001
  --- Overhead Total in ms = 14.8 (0.8+14)
  --- Garbage collection takes 18ms.  So it is set to occur once every minute.
  --- </benchmark>
	onWaitingArmActivated = function()

		-- turn levels off
		levelsOff( localNode )

		if nodeSequence.outputsAlwaysOn then
			-- turn outputs on on all enabled SMUs
			outputsOn( localNode )
		else
			-- turn outputs off on all enabled SMUs to make sure everything is off before we start.
			outputsOff( localNode )
		end

		-- issue waiting arms commands.

		-- clear buffers
		if localNode.smus then
			for i , smu in _G.ipairs( localNode.smus ) do
				smu.nvbuffer1.clear()
				smu.nvbuffer2.clear()
			end
		end

		-- select the first test.
		testNumber = 1

		-- select test configuration for this test.
		selectNodeTest()

		-- update the prompt and display the current state
		updateDisplayPrompt()

		-- collect garbage to free memory.
		if nodeSequence.autoGarbageCollection and (_G.os.clock() > lastGarbageCollectionTime + nodeSequence.garbageCollectionPeriod) then
			lastGarbageCollectionTime = _G.os.clock()
	    _G.collectgarbage()
		end

	  -- Wait for commands to complete.
	  localWaitComplete() 				 

	end

	--- <summary>Issues the seqeunceing action for entering into the closing state.
	--- </summary>
  --- <benchmark>
  --- _G.benchmark( "On Closing: " , exe , 'sq.onClosingActivated()' )
  --- On Closing:  0.004150  - 0.001 = 0.003
  --- _G.benchmark( "On Closing: " , sq.onClosingActivated , nil )
  --- channel.connectrule = channel.BREAK_BEFORE_MAKE On Closing:  0.009766
  --- channel.connectrule = channel.OFF							  On Closing:  0.005371 (0.000732 if closed)
  --- Overhead Total in ms = 14.8 (0.8+14)
  --- Test Total in ms = 5.4 (5.4)
  --- </benchmark>
	onClosingActivated = function()

		-- issue control bits.
		if nodeTest.controlBits ~= nil then

			displayMessageIf( verboseDisplayLevel , prompt .. 'initial cbits')

			initialControlBits( digio ,  nodeTest.controlBits ) 

		end

		if nodeTest.smus ~= nil then

			displayMessageIf( verboseDisplayLevel , prompt .. 'restoring')

      -- restore source settings on all smus.
      restoreLocal()
 
		end

		if nodeTest.switching ~= nil then

			displayMessageIf( verboseDisplayLevel , prompt .. 'initial switching')
			initialSwitching( channel ,  nodeTest.switching ) 

		end

	  -- Wait for the restore commands to complete.
	  localWaitComplete()

	end

	--- <summary>Issues the seqeunceing action for entering into the contact check state.
	--- </summary>
  --- <benchmark>
  --- _G.benchmark( "On Contact Check: " , exe , 'sq.onContactCheckActivated()' )
  --- On Contact Check:  0.001953 - 0.0011 = 0.9
  --- _G.benchmark( "On Contact Check: " , sq.onContactCheckActivated , nil )
  --- Contact Check:  0.000000 
  --- Overhead Total in ms = 14.8 (0.8+14)
  --- Test Total in ms = 6.3 (5.4+0.9)
  --- Contact check times (low, medium, high): 1.2, 4.3, 32ms 
  --- </benchmark>
	onContactCheckActivated = function()

		if nodeTest.smus ~= nil then

			displayMessageIf( verboseDisplayLevel , prompt .. 'cc')

      -- run contact checks on all smus if contact check is enabled.
			for i , smu in _G.ipairs( localNode.smus ) do 
				if smu.enabled then 
					localNode.dataqueue.add( checkContact( smu ) )
				end
			end
 
			if outputsNotAlwaysOn then
	      -- turn outputs on
	      outputsOn( localNode )
			end
 
		end

	  -- Wait for the contact check commands to complete.
	  localWaitComplete() 				 

	end

	--- <summary>Issues the seqeunceing action for entering into the source state.
	--- Source must have enough delay to settle. This method handles the source settling times as set in the meta data.
	--- This method assumes that the outputs are already on after contact check.
	--- </summary>
  --- <benchmark>
  --- _G.benchmark( "On Source: " , exe , 'sq.onSourceActivated()' )
  --- On Source:  0.003418 - 0.0011 = 0.0023
  --- _G.benchmark( "On Source: " , sq.onSourceActivated , nil )
  --- On Source:  0.002197
  --- Overhead Total in ms = 14.8 (0.8+14)
  --- Test Total in ms = 8.3 (5.4+0.9+2.3)
  --- </benchmark>
	onSourceActivated = function()

		if localNode.isController then

			-- get contact check outcomes from all nodes.
	  	for n , v in _G.ipairs( _G.isrNodes ) do

		  	if v.enabled and v.smus then 

					for i , s in _G.ipairs( v.smus ) do

						if s.enabled and (v.dataqueue.count > 0) then

							-- get contact check data from teh data queue.  That was sent
							-- right after completing the contact check.
							local contactCheckFailed = not v.dataqueue.next()

							-- set the contact check results on the meta data on all measurands of this smu
				  		for j , m in _G.ipairs( _G.isrMeta[ n ].data[ testNumber ].smus[ i ] ) do
				
				  			m.failedContactCheck = contactCheckFailed
				
				  		end
						end
					end
				end
	  	end
		end

		if nodeTest.smus ~= nil then
 
			displayMessageIf( verboseDisplayLevel , prompt .. 'levels on')

	    levelsOn( localNode )

		end

	  -- Wait for commands to complete.
	  localWaitComplete() 				 

	end

	--- <summary>Issues the seqeunceing action for entering into the measure state.
	--- </summary>
  --- <benchmark>
  --- _G.benchmark( "On Measure: " , exe , 'sq.onMeasureActivated()' )
  --- On Measure:  0.002441 - 0.0011 = 0.0013
  --- _G.benchmark( "On Measure: " , sq.onMeasureActivated , nil )
  --- On Measure:  0.000000 
  --- Overhead Total in ms = 14.8 (0.8+14)
  --- Test Total in ms = 9.6 (5.4+0.9+2.3+1.3)
  --- </benchmark>
	onMeasureActivated = function()

		if nodeTest.smus ~= nil then

			displayMessageIf( verboseDisplayLevel , prompt .. 'make measurements')
			makeMeasurements( localNode )

		end

	  -- Wait for commands to complete.
	  localWaitComplete() 				 

	end

	--- <summary>Alias to the SMUS save measurement function.</summary>
	local saveMeasurement = _G.isr.smus.saveMeasurement

	--- <summary>Save measurements on all SMUS of the local node.</summary>
  --- <remarks>
  --- Test code
  --- print( isr.node.remoteValue( n2 , ' sq.nodeMeta == nil' ) )
  --- print( isr.node.remoteValue( n2 , ' sq.nodeMeta.smus == nil' ) )
  --- print( isr.node.remoteValue( n2 , ' sq.nodeMeta.smus[ 1 ] == nil' ) )
  --- print( isr.node.remoteValue( n2 , ' sq.nodeTestData.smus[ 1 ] == nil' ) )
  --- print( isr.node.remoteValue( n2 , ' smua.nvbuffer2 == nil' ) )
  --- print( isr.node.remoteValue( n2 , ' smua.nvbuffer2[ 1 ] == nil' ) )
  --- print( isr.node.remoteValue( n2 , ' smua.nvbuffer2[ 1 ]' ) )
  --- print( isr.node.remoteValue( n2 , ' smua.nvbuffer1[ 1 ]' ) )
  --- </remarks>
	local saveLocalMeasurements = function()

		for i , smu in _G.ipairs( localNode.smus ) do 
			if smu.enabled then 
				nodeTestData.smus[ smu.number ] = _G.table.copy( saveMeasurement( smu ) )
			end
		end

	end

	--- <summary>Issues the seqeunceing action for entering into the bias state.
	--- </summary>
  --- <benchmark>
  --- _G.benchmark( "On Bias: " , exe , 'sq.onBiasActivated()' )
  --- On Bias:  0.006592  - 0.0011 = 0.0055
  --- _G.benchmark( "On Bias: " , sq.onBiasActivated , nil )
  --- On Bias:  0.000000 
  --- Overhead Total in ms = 14.8 (0.8+14)
  --- Test Total in ms = 15.1 (5.4+0.9+2.3+1.3+5.5)
  --- </benchmark>
	onBiasActivated = function()

		if nodeTest.smus ~= nil then

			displayMessageIf( verboseDisplayLevel , prompt .. 'biases on')

			-- discharge the DUT.  This includes the decay time.
		  biasesOn( localNode )

      -- turn biases off. This delays by the decay time if bias is not zero.
      biasesOff( localNode )

			if outputsNotAlwaysOn then
	      -- turn outputs off.
	      outputsOff( localNode )
			end

			-- save the measurements
			saveLocalMeasurements()

		end

	  -- Wait for commands to complete.
	  localWaitComplete() 				 

	end

	--- <summary>Issues the seqeunceing action for entering into the opening state.
	--- </summary>
  --- <benchmark>
  --- _G.benchmark( "On Opening: " , exe , 'sq.onOpeningActivated()' )
  --- On Opening:  0.001465  - 0.0011 = 0.0003
  --- _G.benchmark( "On Opening: " , sq.onOpeningActivated , nil )
  --- channel.connectrule = channel.BREAK_BEFORE_MAKE On Opening:  0.012477
  --- channel.connectrule = channel.OFF							  On Opening:  0.007568
  --- Overhead Total in ms = 14.8 (0.8+14)
  --- Test Total in ms = 22.7 (5.4+0.9+2.3+1.3+5.5+7.6)
  --- </benchmark>
	onOpeningActivated = function()

		-- issue control bits.
		if nodeTest.controlBits ~= nil then

			displayMessageIf( verboseDisplayLevel , prompt .. 'final cbits')
			finalControlBits( digio ,  nodeTest.controlBits ) 

		end

		-- close channels
		if nodeTest.switching ~= nil then

			displayMessageIf( verboseDisplayLevel , prompt .. 'final switching')
			finalSwitching( channel ,  nodeTest.switching ) 

		end

	  -- Wait for commands to complete.
	  localWaitComplete() 				 

	end

	--- <summary>Issues the final seqeunceing actions.
	--- </summary>
  --- <benchmark>
  --- _G.benchmark( "On Done: " , exe , 'sq.onDoneActivated()' )
  --- On Done:  0.007080 - 0.0011 = 0.006
  --- _G.benchmark( "On Done: " , sq.onDoneActivated , nil )
	---	On Done:  0.000244
  --- Overhead Total in ms = 20.8 (0.8+14+6)
  --- Test Total in ms = 22.7 (5.4+0.9+2.3+1.3+5.5+7.6)
  --- </benchmark>
	onDoneActivated = function()

		-- turn levels off
		levelsOff( localNode )

		-- turn ouputs off
		outputsOff( localNode )

	  -- Wait for commands to complete.
	  localWaitComplete() 				 

	end

	--- <summary>Issues the final seqeunceing actions for error.
	--- </summary>
  --- <benchmark>
  --- _G.benchmark( "On Done: " , exe , 'sq.onDoneActivated()' )
  --- _G.benchmark( "On Done: " , sq.onDoneActivated , nil )
  --- </benchmark>
	onErrorActivated = function()

		-- display message
 		displayMessageIf( errorsDisplayLevel , "e!" .. nodeSequence.errorMessage )

		-- turn levels off
		levelsOff( localNode )

		-- turn ouputs off
		outputsOff( localNode )

	  -- Wait for commands to complete.
	  localWaitComplete() 				 

	end

	--- <summary>Issues the final seqeunceing actions for abort.
	--- </summary>
  --- <benchmark>
  --- _G.benchmark( "On Done: " , exe , 'sq.onDoneActivated()' )
  --- _G.benchmark( "spc: " , exe , 'spc()' ): spc:  0.002197 
  --- _G.benchmark( "On Done: " , sq.onDoneActivated , nil )
  --- </benchmark>
	onAbortActivated = function()

 		displayMessageIf( warningsDisplayLevel , 'aborted' )

		-- assert the abort lane (if controller) or release (if remote)
		if  nodeSequence.abortLaneNumber then
			abortLaneAssert()
		end

		-- turn levels off
		levelsOff( localNode )

		-- turn ouputs off
		outputsOff( localNode )

	  -- Wait for commands to complete.
	  localWaitComplete() 				 

	end

	--- <summary>Sequences the handlshoke in the remote node.
	--- Each steps starts after receiving a trigger on the trigger lane and 
	--- end with releasing the trigger lane. Steps include restoring the source, contact check, 
	--- turining on the source level, making the measurement, and turning on the source bias
	--- level. 
	--- </summary>
  local _remoteSequence = function()

		local isDone = false 
		local isError = false 
		local errorMessage = ""

		if sequencerState == SequenceState.ready then

			-- initialize
			onReadyActivated()

			-- specify the next state.
			sequencerState = SequenceState.waitingArm

			-- prepare for the next state.
			onWaitingArmActivated()

			-- start the timeout timer
			timeSpannerStart( nodeTest.timeouts.trigger ) 

		elseif sequencerState == SequenceState.waitingArm then

			-- 1: WAIT for the initial trigger from the control node.
      if laneWait( controlDelay ) then 

				-- if received trigger, set next test.

				-- issue the set action if any.
				-- onSetActivated

				-- 1: RELEASE lane to indicate the node is ready to proceed.
	      laneAssert()

				-- specify the next state.
				sequencerState = SequenceState.set

				-- notify after asserting the lane.
				displayMessageIf( infoDisplayLevel , prompt .. SequenceState.currentName() )

				-- start the timeout timer
				timeSpannerStart( nodeTest.timeouts.set ) 

			elseif timeSpannerDone() then

				-- if timeout return done with error and message
				errorMessage = 't/o ' .. SequenceState.currentName() 
		    isError = true
		 
			end
 
		elseif sequencerState == SequenceState.set then

			-- 2: WAIT for trigger from the control node.
      if laneWait( controlDelay ) then 

				-- if received trigger, set next test.

				-- closing state activated.
				onClosingActivated()

				-- 2: RELEASE lane to indicate the node is ready to proceed.
	      laneAssert()

				-- specify the next state.
				sequencerState = SequenceState.waitingClosing

				-- notify after asserting the lane.
				displayMessageIf( infoDisplayLevel , prompt .. SequenceState.currentName() )

				-- start the timeout timer
				timeSpannerStart( nodeTest.timeouts.closing ) 

			elseif timeSpannerDone() then

				-- if timeout return done with error and message
				errorMessage = 't/o ' .. SequenceState.currentName() 
		    isError = true
		 
			end

		elseif sequencerState == SequenceState.waitingClosing then

      -- 3: WAIT for trigger from the control node.
      if laneWait( controlDelay ) then 
	 
	      -- activate contact check state
				onContactCheckActivated()

				-- 3: RELEASE lane to indicate the node is ready to proceed.
	      laneAssert()
	 
				-- move to next state.
				sequencerState = SequenceState.waitingContactCheck

				-- notify after asserting the lane.
				displayMessageIf( infoDisplayLevel , prompt .. SequenceState.currentName() )

				-- start the timeout timer
				timeSpannerStart( nodeTest.timeouts.contactCheck ) 

			elseif timeSpannerDone() then

				-- if timeout return done with error and message
				errorMessage = 't/o ' .. SequenceState.currentName() 
		    isError = true

      end

		elseif sequencerState == SequenceState.waitingContactCheck then

      -- 4: WAIT for trigger from the control node.
      if laneWait( controlDelay ) then 
	 
				-- Activate source state
				onSourceActivated() 

				-- 4: RELEASE lane to indicate the node is ready to proceed.
	      laneAssert()
	 
				-- move to next state.
				sequencerState = SequenceState.waitingSource

				displayMessageIf( infoDisplayLevel , prompt .. SequenceState.currentName() )

				-- start the timeout timer
				timeSpannerStart( nodeTest.timeouts.source ) 

			elseif timeSpannerDone() then

				-- if timeout return done with error and message
				errorMessage = 't/o ' .. SequenceState.currentName() 
		    isError = true

      end

		elseif sequencerState == SequenceState.waitingSource then

      -- 5: WAIT for trigger from the control node.
      if laneWait( controlDelay ) then 

				-- activate measurement state.
				onMeasureActivated()
				 
				-- 5: RELEASE lane to indicate the node is ready to proceed.
	      laneAssert()

				-- move to next state.
				sequencerState = SequenceState.waitingMeasure

				displayMessageIf( infoDisplayLevel , prompt .. SequenceState.currentName() )
	 
				-- start the timeout timer
				timeSpannerStart( nodeTest.timeouts.measure ) 

			elseif timeSpannerDone() then

				-- if timeout return done with error and message
				errorMessage = 't/o ' .. SequenceState.currentName() 
		    isError = true

      end

		elseif sequencerState == SequenceState.waitingMeasure then

      -- 6: WAIT for trigger from the control node.
      if laneWait( controlDelay ) then 
 
      	-- activate the bias state
				onBiasActivated()
	 
				-- 6: RELEASE lane to indicate the node is ready to proceed.
	      laneAssert()

				-- move to next state.
				sequencerState = SequenceState.waitingBias

				displayMessageIf( infoDisplayLevel , prompt .. SequenceState.currentName() )
	 
				-- start the timeout timer
				timeSpannerStart( nodeTest.timeouts.bias ) 

			elseif timeSpannerDone() then

				-- if timeout return done with error and message
				errorMessage = 't/o ' .. SequenceState.currentName() 
		    isError = true

      end

		elseif sequencerState == SequenceState.waitingBias then

      -- 7: WAIT for trigger from the control node.
      if laneWait( controlDelay ) then 
 
				-- activate opening actions
				onOpeningActivated()

				-- 7: RELEASE lane to indicate the node is ready to proceed.
	      laneAssert()

				-- move to next state.
				sequencerState = SequenceState.waitingOpening

				displayMessageIf( infoDisplayLevel , prompt .. SequenceState.currentName() )

				-- start the timeout timer
				timeSpannerStart( nodeTest.timeouts.opening ) 

			elseif timeSpannerDone() then

				-- if timeout return done with error and message
				errorMessage = 't/o ' .. SequenceState.currentName() 
		    isError = true
		 
      end

		elseif sequencerState == SequenceState.waitingOpening then

      -- 8: WAIT for trigger from the control node.
      if laneWait( controlDelay ) then 

				-- check if last test
				if testNumber < testCount then

					-- move to next state.
					sequencerState = SequenceState.testEnd

					displayMessageIf( infoDisplayLevel , prompt .. SequenceState.currentName() )

				else

					-- move to next state.
					sequencerState = SequenceState.cycleEnd

					displayMessageIf( infoDisplayLevel , prompt .. SequenceState.currentName() )

				end

				-- 8: RELEASE lane to indicate the node is ready to proceed.
	      laneAssert()

				-- start the timeout timer
				timeSpannerStart( nodeTest.timeouts.complete ) 

			elseif timeSpannerDone() then

				-- if timeout return done with error and message
				errorMessage = 't/o ' .. SequenceState.currentName() 
		    isError = true
		 
      end

		elseif sequencerState == SequenceState.testEnd then

      -- 1: WAIT for trigger from the control node.
      if laneWait( controlDelay ) then 

			  -- increment the test number.
				testNumber = testNumber + 1

				-- select test configuration
				selectNodeTest()

				-- 2: RELEASE lane to indicate the node is ready to proceed.
	      laneAssert()

				-- move to start next test.
				sequencerState = SequenceState.set

				-- update the prompt and display the state.
				updateDisplayPrompt()

					-- start the timeout timer
				timeSpannerStart( nodeTest.timeouts.set ) 

			elseif timeSpannerDone() then

				-- if timeout return done with error and message
				errorMessage = 't/o ' .. SequenceState.currentName() 
		    isError = true
		 
      end

		elseif sequencerState == SequenceState.cycleEnd then

			-- set the done flag.
			isDone = true

		else

			-- if falling into else a state was not handled.
			errorMessage = 'Unhandled state!'
	    isError = true

		end

		-- check if the controller sent an abort request.
		nodeSequence.isAborted = nodeSequence.abortLaneNumber and abortLaneWait( controlDelay )

  	if isError then

			-- update the error message
			nodeSequence.errorMessage = prompt .. errorMessage

  		onErrorActivated()
	
  	elseif isDone then

  		onDoneActivated()
	
  	elseif isAborted then
	
  		onAbortActivated()
	
	  end

		return isDone, isError, errorMessage

  end

	--- <summary>Repeat the remote sequence until done 
	--- </summary>
  remoteSequence = function()

  	-- set the initial state to ready.
		sequencerState = SequenceState.ready
  	repeat
  		nodeSequence.isDone, nodeSequence.isError, 
  			nodeSequence.errorMessage = _remoteSequence()
  	until nodeSequence.isDone or nodeSequence.isError or nodeSequence.isAborted 

  end

	--- <summary>
	--- launch the remote sequences.
	--- </summary>
	launchRemoteSequences = function()

		-- set some local aliases
		outputsNotAlwaysOn = not nodeSequence.outputsAlwaysOn

		-- display status.
		displayMessageIf( infoDisplayLevel , "Launching Remotes" ) 

		for i , v in _G.ipairs( _G.isrNodes ) do 
			if v.enabled and not v.isController then
				-- wait for completion of any remote command.
				waitcomplete(v.groupNo or 0)
				v.execute("_G.isr.display.showMessage( 'Launching' )" ) 
				waitcomplete(v.groupNo or 0)
				-- must wait for initialiing the sequence to prepare for synchronization.
				v.execute("_G.isr.sequencer.onInitSequence()" ) 
				waitcomplete(v.groupNo or 0)
				v.execute( '_G.isr.sequencer.remoteSequence()' ) 
			end
		end

	end

	--- <summary>
	--- fetch errors from all remote nodes.
	--- </summary>
	fetchRemoteErrors = function()

		local formatString = "@ n%d: %s"
		local isError = false
		local errorMessage = nil

		for i , v in _G.ipairs( _G.isrNodes ) do 
			if v.enabled and not v.isController then
				-- wait for completion of any remote command.
				waitcomplete(v.groupNo or 0)
				if _G.isr.node.remoteValue( v , 'isr.sequencer.nodeSequence.isError' ) then
					waitcomplete(v.groupNo or 0)
					isError = true
					if errorMessage then
						errorMessage = _G.string.format( "%s\n" .. formatString , errorMessage, v.number , _G.isr.node.remoteValue( v , 'isr.sequencer.nodeSequence.errorMessage' ) )
					else
						errorMessage = _G.string.format( formatString , v.number , _G.isr.node.remoteValue( v , 'isr.sequencer.nodeSequence.errorMessage' ) )
					end
					waitcomplete(v.groupNo or 0)
				end
			end
		end
		return isError , errorMessage or ''
	end


  _G.setfenv(1, _G)

  -- Store chunck name at a standard location for require() to look it up.
  _G._LOADED[chunkName]=true

end
--- <summary>
--- Manages the controller loop.</summary>
--- <namespace>_G</namespace>
--- <license>http://www.isr.cc/licenses/Gnu Lesser General Public License.pdf</license>
	--- <history date="04/23/07" by="David Hary" revision="1.00.2669.x">
--- Copyright ? 2007-2008 by Integrated Scientific Resources, Inc.
--- </history>

do

	local chunkName = "_g.isr.sequencer.controller.tsp"

  require("_g.require.lua" , chunkName )
  require("_g.isr.sequencer.test.tsp" , chunkName )

	--- <summary>Gets or sets a name space for ISR code.</summary>
	isr = isr or {}

	--- <summary>Gets or sets a name space for ISR VI Sequencer code.</summary>
	isr.sequencer = isr.sequencer or {}

  local Public, Private = isr.sequencer, {}
  -- Get local access to the global environment
  local _G = _G
  -- Declare all public functions as global variables and they will go to 
  -- a separate table automatically. Register this table as the package name. 
  setfenv(1, Public)

	-- time to wait for the arm signal.
	local armDelay = 0.0001

	-- time to allow all nodes to release the synchronization lane.
	local releaseDelay = 0.0001

	-- time to delay after sending the lane trigger to the remotes
	-- to help align the remote nodes with the controller
	local responseDelay = 50E-6

	--- <summary>Orchestrate the handlshoke across all nodes.
	--- Issue a trigger on line 2 as an external trigger.  Wait for an externaly trigger.
	--- Once received, trigger the remote nodes to restore the source. Wait for
	--- all remotes to finish and trigger remotes to step sources to the pulse level.
	--- Wait for all remotes to finish and trigger remotes to measure.  Wait for
	--- all remotes to finish and trigger remotes to bias.  Wait for remotes
	--- to finish and repeate the cycle. 
	--- </summary>
	controlSequence = function ()

		local isDone = false 
		local isError = false
		local errorMessage = ""

		if sequencerState == SequenceState.ready then

			onReadyActivated()

			-- move to the next state.
			sequencerState = SequenceState.waitingArm

			-- prepare for the next state.
			onWaitingArmActivated()

			if nodeSequence.isOutputArmTrigger then

--[[		-- Output trigger on line 2 to get started. 
				-- Trigger 2 is connected to trigger line for this test to work.
				trigAssert()
]]--
				-- output a trigger on the arm line to get started.
				_G.digio.trigger[ nodeSequence.armLineNumber ].assert()

			end

			-- start the timeout timer
			timeSpannerStart( nodeTest.timeouts.trigger ) 

		elseif sequencerState == SequenceState.waitingArm then

			-- check for external trigger from the system controller to start new cycle.
			if not ArmMode.onWait( nodeTest.triggers.arm ) or armWait( armDelay ) then 

				-- if received trigger, set next test.

				-- 1: TRIGGER remote nodes
				laneAssert() 

				-- Give remote nodes time to respond to the trigger to help align local remote nodes.
				_G.delay(responseDelay)

				-- issue the set action if any.
				-- onSetActivated

				-- move to the next state.
				sequencerState = SequenceState.set

				-- notify.
				displayMessageIf( infoDisplayLevel , prompt .. SequenceState.currentName() )

				-- start the timeout timer
				timeSpannerStart( nodeTest.timeouts.set ) 

			elseif timeSpannerDone() then

				-- if timeout return done with error and message
				errorMessage = 't/o ' .. SequenceState.currentName()
		    isError = true
		 
			end

		elseif sequencerState == SequenceState.set then

			-- 1: Wait until all nodes release the synchronization lane.
      if laneWait( releaseDelay ) then 
 
				-- 2: TRIGGER remote nodes 
				laneAssert()

				-- Give remote nodes time to respond to the trigger to help align local remote nodes.
				_G.delay(responseDelay)

				if TriggerMode.onClosing( nodeTest.triggers.trig ) then

					-- Send a trigger to the system controller to indicate the relays are closing.
					trigAssert()
	
				end

				-- activate the closing state.
				onClosingActivated()

				-- move to next state.
				sequencerState = SequenceState.waitingClosing

				displayMessageIf( infoDisplayLevel , prompt .. SequenceState.currentName() )

				-- start the timeout timer
				timeSpannerStart( nodeTest.timeouts.closing ) 

			elseif timeSpannerDone() then

				-- if timeout return done with error and message
				errorMessage = 't/o ' .. SequenceState.currentName()
		    isError = true

  	  end 

		elseif sequencerState == SequenceState.waitingClosing then

			-- 2: Wait until all nodes release the synchronization lane.
      if laneWait( releaseDelay ) then 
 
				-- 3: TRIGGER remote nodes 
				laneAssert()

				-- Give remote nodes time to respond to the trigger to help align local remote nodes.
				_G.delay(responseDelay)

      	if TriggerMode.onContactCheck( nodeTest.triggers.trig ) then

					-- Send a trigger to the system controller to indicate contact check starting.
					trigAssert()
 
      	end
 
	      -- activate contact check state
				onContactCheckActivated()

				-- move to next state.
				sequencerState = SequenceState.waitingContactCheck

				displayMessageIf( infoDisplayLevel , prompt .. SequenceState.currentName() )

				-- start the timeout timer
				timeSpannerStart( nodeTest.timeouts.contactCheck ) 

			elseif timeSpannerDone() then

				-- if timeout return done with error and message
				errorMessage = 't/o ' .. SequenceState.currentName()
		    isError = true

  	  end 

		elseif sequencerState == SequenceState.waitingContactCheck then

			-- 3: Wait until all nodes release the synchronization lane.
      if laneWait( releaseDelay ) then 
 
				-- 4: TRIGGER remote nodes 
				laneAssert()

				-- Give remote nodes time to respond to the trigger to help align local remote nodes.
				_G.delay(responseDelay)

      	if TriggerMode.onSource( nodeTest.triggers.trig ) then

					-- Send a trigger to the system controller to indicate source is on.
					trigAssert()
 
      	end

				-- Activate source state
				onSourceActivated() 

				-- move to next state.
				sequencerState = SequenceState.waitingSource

				displayMessageIf( infoDisplayLevel , prompt .. SequenceState.currentName() )

				-- start the timeout timer
				timeSpannerStart( nodeTest.timeouts.source ) 

			elseif timeSpannerDone() then

				-- if timeout return done with error and message
				errorMessage = 't/o ' .. SequenceState.currentName()
		    isError = true

  	  end 

		elseif sequencerState == SequenceState.waitingSource then

			-- 4: Wait until all nodes release the synchronization lane.
      if laneWait( releaseDelay ) then 

				-- 5: TRIGGER remote nodes 
				laneAssert() 

				-- Give remote nodes time to respond to the trigger to help align local remote nodes.
				_G.delay(responseDelay)

      	if TriggerMode.onMeasure( nodeTest.triggers.trig ) then
 
					-- Send a trigger to the system controller to indicate measurements are beginning.
					trigAssert()

				end
								
				-- activate measurement state.
				onMeasureActivated()

				-- move to next state.
				sequencerState = SequenceState.waitingMeasure

				displayMessageIf( infoDisplayLevel , prompt .. SequenceState.currentName() )

				-- start the timeout timer
				timeSpannerStart( nodeTest.timeouts.measure ) 

			elseif timeSpannerDone() then

				-- if timeout return done with error and message
				errorMessage = 't/o ' .. SequenceState.currentName()
		    isError = true
		 
	    end 

		elseif sequencerState == SequenceState.waitingMeasure then

			-- 5: Wait until all nodes release the synchronization lane.
      if laneWait( releaseDelay ) then 
 
				-- 6: TRIGGER remote nodes 
				laneAssert()

				-- Give remote nodes time to respond to the trigger to help align local remote nodes.
				_G.delay(responseDelay)

      	if TriggerMode.onBias( nodeTest.triggers.trig ) then
 
					-- Send a trigger to the system controller to indicate bias is turned on.
					trigAssert()

				end
				
      	-- activate the bias state
				onBiasActivated()

				-- move to next state.
				sequencerState = SequenceState.waitingBias

				displayMessageIf( infoDisplayLevel , prompt .. SequenceState.currentName() )

				-- start the timeout timer
				timeSpannerStart( nodeTest.timeouts.bias ) 

			elseif timeSpannerDone() then

				-- if timeout return done with error and message
				errorMessage = 't/o ' .. SequenceState.currentName()
		    isError = true

	    end

		elseif sequencerState == SequenceState.waitingBias then

			-- 6: Wait until all nodes release the synchronization lane.
      if laneWait( releaseDelay ) then
 
				-- 7: TRIGGER remote nodes
				laneAssert()

				-- Give remote nodes time to respond to the trigger to help align local remote nodes.
				_G.delay(responseDelay)

      	if TriggerMode.onOpening( nodeTest.triggers.trig ) then
 
					-- Send a trigger to the system controller to indicate bias is done and relays are buing switched.
					trigAssert()
					
      	end
 
				-- activate opening state
				onOpeningActivated()

				-- move to next state.
				sequencerState = SequenceState.waitingOpening

				displayMessageIf( infoDisplayLevel , prompt .. SequenceState.currentName() )

				-- start the timeout timer
				timeSpannerStart( nodeTest.timeouts.opening ) 

			elseif timeSpannerDone() then

				-- if timeout return done with error and message
				errorMessage = 't/o ' .. SequenceState.currentName()
		    isError = true

	    end
	 
		elseif sequencerState == SequenceState.waitingOpening then

			-- 7: Wait until all nodes release the synchronization lane.
      if laneWait( releaseDelay ) then
 
				-- 8: TRIGGER remote nodes 
				laneAssert()

				-- Give remote nodes time to respond to the trigger to help align local remote nodes.
				_G.delay(responseDelay)

      	if TriggerMode.onFinished( nodeTest.triggers.trig ) then
 
					-- Send a trigger to the system controller to indicate test is done.
					trigAssert()
					
      	end
 
				-- check if last test
				if testNumber < testCount then

					-- move to next state.
					sequencerState = SequenceState.testEnd

					displayMessageIf( infoDisplayLevel , prompt .. SequenceState.currentName() )

				else

	      	if TriggerMode.onGroup( nodeTest.triggers.trig ) then
	 
						-- Send a trigger to the system controller to indicate test is done.
						trigAssert()
						
	      	end
	 
					-- move to next state.
					sequencerState = SequenceState.cycleEnd

					displayMessageIf( infoDisplayLevel , prompt .. SequenceState.currentName() )

				end

				-- start the timeout timer
				timeSpannerStart( nodeTest.timeouts.complete ) 

			elseif timeSpannerDone() then

				-- if timeout return done with error and message
				errorMessage = 't/o ' .. SequenceState.currentName()
		    isError = true

	    end
	 
		elseif sequencerState == SequenceState.testEnd then

			-- 8: Wait until all nodes release the synchronization lane.
      if laneWait( releaseDelay ) then

				-- 1: TRIGGER remote nodes 
				laneAssert()

				-- Give remote nodes time to respond to the trigger to help align local remote nodes.
				_G.delay(responseDelay)

			  -- increment the test number.
				testNumber = testNumber  + 1

				-- select test configuration
				selectNodeTest()

				-- move to start next test.
				sequencerState = SequenceState.set

				-- update the prompt and display the state.
				updateDisplayPrompt()
 
					-- start the timeout timer
				timeSpannerStart( nodeTest.timeouts.set ) 

			elseif timeSpannerDone() then

				-- if timeout return done with error and message
				errorMessage = 't/o ' .. SequenceState.currentName()
		    isError = true

      end

		elseif sequencerState == SequenceState.cycleEnd then

			-- 8: Wait until all nodes release the synchronization lane.
      if laneWait( releaseDelay ) then
 
				-- update the prompt and display the state.
				updateDisplayPrompt()
 
				-- set the done flag.
				isDone = true

			elseif timeSpannerDone() then

				-- if timeout return done with error and message
				errorMessage = 't/o ' .. SequenceState.currentName()
		    isError = true

      end

		else

			-- if falling into else a state was not handled.
			errorMessage = 'Unhandled state!'
	    isError = true

		end

 		-- check GET or *TRG to detect an abort request from the computer
 		nodeSequence.isAborted  = _G.trigger.wait( armDelay )

  	if isError then

			-- update the error message
			nodeSequence.errorMessage = prompt .. errorMessage

  		onErrorActivated()

			-- assert the abort lane to abort the remote nodes.
			if  nodeSequence.abortLaneNumber then
				abortLaneAssert()
			end
	
  	elseif isDone then

  		onDoneActivated()
	
  	elseif isAborted then
	
  		onAbortActivated()
	
	  end

		return isDone, isError, errorMessage

	end

 	--- <summary>Sends a seqeuncer debug message.</summary>
  --- <param name="id">Specifies an id string for the sequencer.</param>
  --- <param name="isError">True if error.</param>
  --- <param name="isError">True if done.</param>
  sendDebugMessage = function( id , isError , isDone , testNo , message )
  	local _tspMessage = _G.isr.statusMessage
  	local bits = _tspMessage.InfoBits
  	_tspMessage.messageType = _tspMessage.Types.sequence
		_tspMessage.nodeNumber = 1
		_tspMessage.unitNumber = 0
		local status = bits.debugMessage
		if isError then
		 	status = status + bits.tspError 
		end
		if not isDone then
	 		status = status + bits.tspActive 
		end
	 	_tspMessage.activeStatus = status
  	_tspMessage.contents = _G.string.format("%s , %d, %s", id , testNo , message or '' )
  	_tspMessage.send()
  end

	--- <summary>
	--- Runs the sequence.
	--- </summary>
  --- <remarks>
	--- Benchmarks:
	--- 8/06
	--- _G.benchmark( "Run: " , sq.launchSequence , nil )
	--- Tests =  1; Nodes = 2: Run:  0.052094, 0.051880
  --- Tests = 11; Nodes = 2: Run:  0.274475, 0.273987  
	--- 11 t = 274 - (52 + 10) = 212.  t = 21 ms. To = 52 - 21 = 31ms
	--- Add 10 to the overhead for fetching data.
	--- Once K fixes the reset we get 35ms initialization.
	--- 
	--- Final = initial channels.
	--- Tests =  1; Nodes = 2: Run:  0.045044, 0.044678 
  --- Tests = 11; Nodes = 2: Run:  0.254517, 0.253723
	--- 11 t = 254 - (45 + 10) = 199.  t = 20 ms. To = 45 - 20 = 25ms
	--- 
	--- 7/31
	--- _G.benchmark( "Run: " , sq.launchSequence , nil )
	--- Tests =  1; Nodes = 2: Run:  0.056824, 0.059418 
  --- Tests = 11; Nodes = 2: Run:  0.278381, 0.279816 
	--- 11 t = 279 - (56 + 10) = 213.  t = 21 ms. To = 56 - 21 = 35ms
	--- Add 10 to the overhead for fetching data.
	--- Once K fixes the reset we get 35ms initialization.
	--- 
	--- Final = initial channels.
	--- Tests =  1; Nodes = 2: Run:  0.050781
  --- Tests = 11; Nodes = 2: Run:  0.260864, 0.258850
	--- 11 t = 260 - (51 + 10) = 199.  t = 20 ms. To = 51 - 20 = 31ms
	--- 
  --- Loop Test Total in ms = 22.7 (5.4+0.9+2.3+1.3+5.5+7.6)
  --- Launch Test Total in ms = 1.2 (fetch buffers data per test)
  --- Loop Overhead Total in ms = 20.8 (0.8+14+6)
  --- Launch Overhead Total in ms = 15.6 (0.2+9.5+1.5+0.7+4.4)
  --- Test time: 				23.9 
  --- Total overhead:		36.4
	--- 
	--- 7/30
	--- _G.benchmark( "Run: " , sq.launchSequence , nil )
	--- Tests =  1; Nodes = 2: Run:  0.078857, 0.080078 
  --- Tests = 11; Nodes = 2: Run:  0.305420 
	--- 11 t = 305 - (79 + 10) = 216.  t = 22 ms. To = 79 - 22 = 57ms
	--- Add 10 to the overhead for fetching data.
	--- Final = initial channels.
  --- Tests = 11; Nodes = 2: Run:  0.289551
	--- 11 t = 289 - (79 + 10) = 200.  t = 20 ms.
  ---
  --- Having to reset the nodes from local to the remote adds 10mS overhead!
	--- 7/29
	--- Benchmarks final = initial channels:
	--- Tests =  1; Nodes = 2: Run:
	--- Tests = 10; Nodes = 2: Run:
	---
	--- Benchmarks connect rule = Make before break: adds 5 ms to switch closures.
	--- Tests =  1; Nodes = 2: Run:  0.086426
  --- Tests = 10; Nodes = 2: Run:  0.318604 
	---
	--- Benchmarks connect rule = OFF:
	--- Tests =  1; Nodes = 2: Run:  0.077454,  0.078247
	--- Tests = 10; Nodes = 2: Run:  0.284546 
	--- 9 t = 285 - 78 = 207.  t = 23 ms. To = 78 - 23 = 55ms
	--- The breakdown is: 
	--- Closing: 6; Contact check: 0 (2 - 35ms); Source: 5; Measure= 1; Bias = 5; Opening 6 
	---
	--- Benchmarks final = initial channels:
	--- Tests =  1; Nodes = 2: Run:  0.094727 
	--- Tests = 10; Nodes = 2: Run:  0.271851 
	--- 9 t = 271 - 94 = 177.  t = 19 ms. To = 94 - 19 = 75ms
	---
	--- Benchmarks error display level:
	--- Tests = 10; Nodes = 2: Run:  0.295654 (compare to 0.318604) = 20ms.
	---
	--- Benchmarks final = initial channels:
	--- Tests =  1; Nodes = 2: Run:  0.091797, 0.087158,  0.088135
	--- Tests = 10; Nodes = 2: Run:  0.240234, 0.243164 
	--- 9 t = 243 - 89 = 154.  t = 17 ms. To = 89 - 17 = 72ms
	--- The breakdown is: 
	--- Closing: 5; Contact check: 0 (2 - 35ms); Source: 5; Measure= 1; Bias = 5; Opening 1 
	---
  --- </remarks>
	launchSequence = function()

		-- CLEAR any previously latched triggers ( 0.2ms )
	  --- Launch Overhead Total in ms = 0.2 (0.2)
		armClear()

		-- WORKAROUND: Buffers must be clear from the controller. 9.521
	  -- Launch Overhead Total in ms = 9.7 (0.2+9.5)
		-- _G.isr.smus.clearNodeBuffers()

		-- clear all remote cached buffers.
	  -- Launch Overhead Total in ms = 0.7 (0.2+0.5)
		_G.isr.smus.clearCachedBuffers()
		
		-- Start all remote nodes. 1.53 
	  --- Launch Overhead Total in ms = 11.2 (0.2+9.5+1.5)
		launchRemoteSequences()

		-- now that the remote sequencers are ready to go, assert the first trigger to line up 
		-- in preparation for the first signal.

		-- set the controller initial state
		sequencerState = SequenceState.ready

  	repeat

  		nodeSequence.isDone, nodeSequence.isError, nodeSequence.errorMessage = controlSequence()

  	until nodeSequence.isDone or nodeSequence.isError or nodeSequence.isAborted

		-- wait for all nodes to finish: 0.732 
	  --- Launch Overhead Total in ms = 11.2 (0.2+9.5+1.5+0.7)
  	_G.waitcomplete(0)

  	-- get the remote errors. 4.395 
	  --- Launch Overhead Total in ms = 15.6 (0.2+9.5+1.5+0.7+4.4)
  	nodeSequence.isrRemoteErrors, nodeSequence.remoteErrorMessages = fetchRemoteErrors()

		if nodeSequence.isError or nodeSequence.isrRemoteErrors then

	 		if nodeSequence.isError then
	 
	 			-- allows the PC to fetch the error.
	 			if nodeSequence.isSendErrorMessages then
		 			sendDebugMessage( "sq" , nodeSequence.isError , nodeSequence.isDone , testNumber , nodeSequence.errorMessage )
	 			end

			end 
	
	 		if nodeSequence.isrRemoteErrors then
	 
	 			-- allows the PC to fetch the error. 0.977 
	 			if nodeSequence.isSendErrorMessages then
		 			sendDebugMessage( "sq" , nodeSequence.isrRemoteErrors , nodeSequence.isDone , testNumber , nodeSequence.remoteErrorMessages )
	 			end
	 
	 		end

		else

			-- if no errors, get the data. 0.001190 * number of tests.
			-- fetchTestsData()
			fetchBuffersData()

		end
 
		-- Set the OPC bit on the status register upon completing the last operation.
		-- This indicates that the loop is done.
		_G.opc()

	end

  _G.setfenv(1, _G)

  -- Store chunck name at a standard location for require() to look it up.
  _G._LOADED[chunkName]=true

end


