--- <namespace>_G</namespace>
--- <license>http://www.isr.cc/licenses/Gnu Lesser General Public License.pdf</license>
--- <history date="03/15/07" by="David Hary" revision="1.00.2630.x">
--- Copyright ? 2007-2008 by Integrated Scientific Resources, Inc.
--- </history>

do

	local chunkName = "_g.require.lua"

	--- <summary>
	--- Checks if a name exists in the _LOADED table.	Throws an exception if not exists.
	--- </summary>
	--- <namespace>_G</namespace>
	--- <param name="requiredName">Specifies the name of the required script or chuck.</param>
	--- <param name="currentSName">Specifies the name of the current script or chuck.
	--- Defaults to nil.</param>
	--- <param name="throw">Specifies the condition for throwing an error.	Defaults to true.</param>
	--- <history date="03/30/07" by="David Hary" revision="1.00.2644.x">
	--- Add current name.
	--- </history>
	function require( requiredName , currentName , throw )
		if throw == nil then
			throw = true
		end
		if currentName == nil then
			currentName = "this chunk"
		end 
		exists = false
		for name, value in _G.pairs( _G._LOADED ) do
			if name ~= nil then
				if name == requiredName then
					exists = true
					break
				end
			end
		end
		if not exists and throw then 

			_G.error( requiredName .. " must be loaded before loading " .. currentName , 0 )
		else
			return exists
		end
	end

	-- Store chunck name at a standard location for require() to look it up.
	_G._LOADED[chunkName]=true

end



--- <summary>
--- Bit extension functions.</summary>
--- <namespace>_G</namespace>
--- <license>http://www.isr.cc/licenses/Gnu Lesser General Public License.pdf</license>
--- <history date="03/28/07" by="David Hary" revision="1.00.2643.x">
--- Copyright ? 2007-2008 by Integrated Scientific Resources, Inc.
--- </history>

do

	local chunkName = "_g:bit.lua"

	--- <summary>
	--- Calculates a Bitwise NOT.
	--- </summary>
	--- <param name="value">Specifies the value which bits are to bit toggled.</param>
	--- <param name="wordSize">Specifies the word size to return.	If nil, the word sizes extends 
	--- over the word size of the value.	For example, 3 has two bits and 4 has 3.
	--- Not 6 is 1 and Not 9 is 6.</param>
	--- <namespace>_G</namespace>
	function bitnot ( value , wordSize )
		if wordSize == nil then
			junk , wordSize = math.frexp( value )
		end 
		local a = value
		for i = 1, wordSize do
			a = bit.toggle( a , i )
		end
		return a
	end

	-- Store chunck name at a standard location for require() to look it up.
	_G._LOADED[chunkName]=true

end



--- <summary>
--- Boolean System functions.</summary>
--- <remarks>.</remarks>
--- <namespace>_G.type</namespace>
--- <license>http://www.isr.cc/licenses/Gnu Lesser General Public License.pdf</license>
--- <history date="03/08/07" by="David Hary" revision="1.00.2623.x">
--- Copyright ? 2007-2008 by Integrated Scientific Resources, Inc.
--- </history>

do

	local chunkName = "_g.type.lua"

	--- <summary>Check if the object is a boolean.</param>
	--- <param name="value">A reference to an unkown object.</param>
	--- <returns>True if the object is a boolean.</returns>
	_G.isBoolean = function( value ) 
		return 'boolean' == type( value )
	end

	--- <summary>Check if the object is a function.</param>
	--- <param name="value">A reference to an unkown object.</param>
	--- <returns>True if the object is a function.</returns>
	_G.isFunction = function( value ) 
		return 'function' == type( value )
	end

	--- <summary>Check if the object is a number.</param>
	--- <param name="value">A reference to an unkown object.</param>
	--- <returns>True if the object is a number.</returns>
	_G.isNumber = function( value ) 
		return 'number' == type( value )
	end

	--- <summary>Check if the object is a string.</param>
	--- <param name="value">A reference to an unkown object.</param>
	--- <returns>True if the object is a string.</returns>
	_G.isString = function( value ) 
		return 'string' == type( value )
	end

	--- <summary>Check if the object is a table.</param>
	--- <param name="value">A reference to an unkown object.</param>
	--- <returns>True if the object is a table.</returns>
	_G.isTable = function( value ) 
		return 'table' == type( value )
	end

	--- <summary>Check if the object is a thread.</param>
	--- <param name="value">A reference to an unkown object.</param>
	--- <returns>True if the object is a thread.</returns>
	_G.isThread = function( value ) 
		return 'thread' == type( value )
	end

	--- <summary>Check if the object is a user data.</param>
	--- <param name="value">A reference to an unkown object.</param>
	--- <returns>True if the object is a user data.</returns>
	_G.isUserdata = function( value ) 
		return 'userdata' == type( value )
	end

	-- Store chunck name at a standard location for require() to look it up.
	_G._LOADED[chunkName]=true

end




--- <namespace>_G</namespace>
--- <license>http://www.isr.cc/licenses/Gnu Lesser General Public License.pdf</license>
--- <history date="04/11/07" by="David Hary" revision="1.00.2657.x">
--- Copyright ? 2007-2008 by Integrated Scientific Resources, Inc.
--- table.copy Copyright of LOOP - Lua Object-Oriented Programming project.
--- </history>

do

	local chunkName = "_g.tables.lua"

	--- <summary>Copies all elements stored in a table into another.
	--- Each pair of key and value stored in table 'source' will be set into table
	--- 'destination'.
	--- If no 'destination' table is defined, a new empty table is used.
	--- </summary>
	--- <param name="source">Table containing elements to be copied.</param>
	--- <param name="destination">Optional table which elements must be copied into..</param>
	--- <returns>Table containing copied elements.
	--- </returns>
	--- <example>
	--- newTable = _G.table.copy(oldTable)
	--- </example>
	--- <example>
	--- _G.table.copy(oldTable, newTable)
	--- </example>
	--- <benchmark>
	--- _G.benchmark( "Table copy: " , _G.table.copy , isr.measurand )
	---	Table copy:	0.000244 
	--- </benchmark>
	table.copy = function(source, destination)
		if source then
			destination = destination or {}
			for field, value in pairs(source) do
				destination[field] = value
			end
			for i, value in ipairs(source) do
				destination[ i ] = value
			end
		end
		return destination
	end

	if table.foreach == nil then
		--- <summary>Executes for each function on LUA tables.	This command was written 
		--- because table.foreach was deprecated.</summary>
		--- <param name="t">Specifies a LUA table.</param>
		--- <param name="f">Specifies a function to execute on the table.
		--- the function has to have a name and value arguments.</param>
		table.foreach = function( t , f )

			for n, v in pairs(t) do f( n, v ) end

		end

	end

	--- <summary>Executes for each function on LUA tables.	This command was written 
	--- because table.foreach was deprecated.</summary>
	--- <param name="t">Specifies a LUA table.</param>
	--- <param name="f">Specifies a function to execute on the table.
	--- the function has to have a name and value arguments.</param>
	--- <param name="...">Specifies the function arguments.</param>
	table.foreachargs = function( t , f , ... )

		for n, v in pairs(t) do f( n, v , unpack(arg) ) end

	end

	if table.foreachi == nil then

		--- <summary>Executes for each I function on LUA tables.	This command was written 
		--- because table.foreach was deprecated.</summary>
		--- <param name="t">Specifies a LUA table.</param>
		--- <param name="f">Specifies a function to execute on the table.
		--- the function has to have an index and value arguments.</param>
		table.foreachi = function( t , f )

			for i, v in ipairs(t) do f( i , v ) end

		end

	end

	--- <summary>Executes for each I function on LUA tables.	This command was written 
	--- because table.foreach was deprecated.</summary>
	--- <param name="t">Specifies a LUA table.</param>
	--- <param name="f">Specifies a function to execute on the table.
	--- the function has to have an index and value arguments.</param>
	--- <param name="...">Specifies the function arguments.</param>
	table.foreachargi = function( t , f , ... )

		for i, v in ipairs(t) do f( i , v , unpack(arg) ) end

	end

	-- Store chunck name at a standard location for require() to look it up.
	_G._LOADED[chunkName]=true

end



--- <namespace>_G</namespace>
--- <license>http://www.isr.cc/licenses/Gnu Lesser General Public License.pdf</license>
--- <history date="03/28/07" by="David Hary" revision="1.00.2643.x">
--- Copyright ? 2007-2008 by Integrated Scientific Resources, Inc.
--- </history>

do

	local chunkName = "_g:printf.lua"

	--- <summary>Outputs data using C formatting.</summary>
	--- <example>
	---	 printf("Hello from %s on %s\n",_VERSION,date())
	--- </example>
	function printf(...)
		print( string.format( unpack( arg ) ) )
	end

	-- Store chunck name at a standard location for require() to look it up.
	_G._LOADED[chunkName]=true

end


--- <summary>
--- Global set and get permitting setting indexed global.</summary>
--- <remarks>.</remarks>
--- <namespace>_G.type</namespace>
--- <license>http://www.isr.cc/licenses/Gnu Lesser General Public License.pdf</license>
--- <history date="04/21/07" by="David Hary" revision="1.00.2667.x">
--- Copyright ? 2007-2008 by Integrated Scientific Resources, Inc.
--- </history>

do 

	local chunkName = "_g.global.tsp"

	--- <summary>Returns a reference to a copy of a remote smu global.
	--- This requires that the remote global is set. 
	--- premits getting a copy of a part of the remote global.</summary>
  --- <param name="tslNode">Specifies reference to a TSL node.</param>
  --- <param name="globalName">Specifies the global name.</param>
  --- <param name="value">Specifies the global.</param>
  --- <remarks>
  --- Must execute the ISR framework to set the group numbers of this to work
  --- using the node group number.
  --- ??Waiting for completion only on the group is insufficient.
  --- </remarks>
	--- <history date="07/16/08" by="David Hary" revision="1.00.3113.x">
	--- Passed
	--- </history>
	setsubglobal = function( tslNode , globalName , value )

		local temp = "_temp"
		tslNode.setglobal(temp , value )
		waitcomplete( tslNode.groupNo or 0 )

		local remoteCommand = string.format("%s = %s", globalName , temp )

		-- set global name on the remote node
		tslNode.execute( remoteCommand )
		waitcomplete( tslNode.groupNo or 0 )

		-- release the local reference
		tslNode.execute(string.format("%s = nil", temp ))
		waitcomplete( tslNode.groupNo or 0 )

	end

	--- <summary>Sets a reference to a copy of a remote smu global.
	--- This requires that the remote global is set. 
	--- premits getting a copy of a part of the remote global.</summary>
  --- <param name="tslNode">Specifies reference to a TSL node.</param>
  --- <param name="globalName">Specifies the global name.</param>
  --- <remarks>Waiting for completion only on the group is insufficient.
  --- </remarks>
	--- <history date="07/16/08" by="David Hary" revision="1.00.3113.x">
	--- Passed
	--- </history>
	getsubglobal = function( tslNode , globalName ) 

		local temp = "_temp"
		local remoteCommand = string.format("%s = %s", temp , globalName )

		-- set local reference on the remote node
		tslNode.execute( remoteCommand )
		waitcomplete( tslNode.groupNo or 0 )

		-- ret the reference
		local y = tslNode.getglobal(temp)
		waitcomplete( tslNode.groupNo or 0 )

		-- release the local reference
		tslNode.execute(string.format("%s = nil", temp ))
		waitcomplete( tslNode.groupNo or 0 )

		return y

	end

	--- <summary>Sets a reference to a copy of a remote smu global.
	--- This requires that the remote global is set. 
	--- premits getting a copy of a part of the remote global.</summary>
  --- <param name="tslNode">Specifies reference to a TSL node.</param>
  --- <param name="globalName">Specifies the global name.</param>
  --- <remarks>Waiting for completion only on the group is insufficient.
  --- </remarks>
	--- <history date="07/16/08" by="David Hary" revision="1.00.3113.x">
	--- Passed
	--- </history>
	getsubglobals = function( nodes , globalName ) 

		local temp = "_temp"
		local remoteCommand = string.format("%s = %s", temp , globalName )
		local y = {}

		for i , v in _G.ipairs( nodes ) do

			if v ~= localnode then
				-- set local reference on the remote node
				v.execute( remoteCommand )
			end

		end
		waitcomplete( 0 )

		for i , v in _G.ipairs( nodes ) do

			if v ~= localnode then
				-- get the reference
				y[ i ] = v.getglobal(temp)
			end

		end
		waitcomplete( 0 )

		for i , v in _G.ipairs( nodes ) do

			if v ~= localnode then
				-- release the local reference
				v.execute(string.format("%s = nil", temp ))
			end

		end
		waitcomplete( 0 )

		return y

	end

	--- <summary>Gets the type of a global on the remote node.</summary>
  --- <param name="tslNode">Specifies reference to a TSL node.</param>
  --- <param name="globalName">Specifies the global name.</param>
	getGlobalInfo = function( tslNode , globalName ) 

		local temp = "_temp"
		local remoteCommand = string.format("%s = _G.type(%s) .. ': ' .. tostring(%s) ", temp , globalName , globalName )

		-- get the type on the remote node.
		tslNode.execute( remoteCommand )
		waitcomplete( tslNode.groupNo or 0 )

		-- ret the result
		local y = tslNode.getglobal(temp)

		-- release the local reference
		tslNode.execute(string.format("%s = nil", temp ))
		waitcomplete( tslNode.groupNo or 0 )

		return y

	end

  -- Store chunck name at a standard location for require() to look it up.
  _G._LOADED[chunkName]=true

end

--- <summary>
--- Adds display functions to TSL.</summary>
--- <namespace>_G</namespace>
--- <license>http://www.isr.cc/licenses/Gnu Lesser General Public License.pdf</license>
--- <history date="04/14/07" by="David Hary" revision="1.00.2660.x">
--- Copyright ? 2007-2008 by Integrated Scientific Resources, Inc.
--- </history>
--- <history date="07/25/08" by="David Hary" revision="1.00.3128.x">
--- From debug.	Added key functions.
--- </history>

do

	local chunkName = "_g.isr.display.tsp"

	--- <summary>Gets or sets a name space for ISR code.</summary>
	isr = isr or {}

	--- <summary>Gets or sets a name space for ISR display code.</summary>
	isr.display = {}

	local Public, Private = isr.display, {}
	-- Get local access to the global environment
	local _G = _G
	-- Declare all public functions as global variables and they will go to 
	-- a separate table automatically. Register this table as the package name. 
	setfenv(1, Public)

	--- <summary>Enumerates the display levels.</summary>
	DisplayLevel = { none = 0 , errors = 1 , warnings = 2 , info = 3 , verbose = 4 }

	--- <summary>Gets or sets the display level.</summary>
	level = DisplayLevel.errors

	--- <summary>Sends the enter key. This seems necessary for now if setting a loop
	--- calling the display.getlastkey function.</summary>
	sendEnter = function()

		-- send the enter key otherwise we cannot see the command to enter.
		_G.localnode.display.sendkey( _G.localnode.display.KEY_ENTER )

	end

	--- <summary>Clears and displays the message.</summary>
	--- <benchmark>
	--- _G.benchmark( "Display Message: " , isr.display.showMessage, 'message' )
	---	Display Message:	0.000488 
	--- </benchmark>
	showMessage = function( value )

		_G.display.clear()
		_G.display.settext( value )

	end

	--- <summary>Clears and displays the message if the condition exceeds the nominal display level.</summary>
	--- <param name="condition">Specifies the display condition relative to the glocal display level. 
	--- the message is displayed if the specified condition is lower or equal to the glocal 
	--- display level.</param>
	--- <param name="value">Specifies the message to display.</param>
	--- <remarks>
	--- Test code:
	---		 isr.display.level = 2
	---		 isr.display.showMessageIf( 3 , "Info" ) 
	---		 isr.display.level = 3
	---		 isr.display.showMessageIf( 3 , "Info" ) 
	---		 display.clear()
	---		 display.screen = 1
	---		 display.screen = 2
	--- </remarks>
	showMessageIf = function( condition , value )

		if condition <= level then
			showMessage( value )
		end

	end

	--- <summary>Unlocks the display and returns the previous state.</summary>
	unlock = function()

		local lockState = _G.display.locallockout 
		_G.display.locallockout = _G.display.UNLOCK
		return lockState

	end

	--- <summary>Gets the nil key value. The is the key that is returned by display.getlastkey() if
	--- no key was pressed.</summary>
	local nilKey = 0 

	--- <summary>Gets the last key pressed.</summary>
	local	lastKey = nilKey

	--- <summary>Clears the last key pressed.</summary>
	clearKey = function( ) 

		lastKey = nilKey

	end

	--- <summary>Returns true if the last key was the specified key.</summary>
	waitKey = function( timeout , key ) 

		local startTime = _G.os.clock()
		while (lastKey == nilKey) and (lastKey ~= key) and ((_G.os.clock() - startTime) < timeout) do
			lastKey = _G.display.getlastkey()
		end
		if (lastKey == key) then
			lastKey = nilKey
			return true
		else
			return false
		end

	end

	--- <summary>Returns true if the last key was the Enter key.</summary>
	waitEnter = function( timeout ) 

		return waitKey( timeout , _G.display.KEY_ENTER )

	end

	--- <summary>Returns true if the last key was the Trigger key.</summary>
	--- <remarks>
	--- Test code:
	--- if isr.display.waitEnter( 1 ) then print( 'Entered' ) elseif isr.display.waitTrigger( 0.1 ) then print( 'Triggered' ) end
	--- if isr.display.waitTrigger( 1 ) then print( 'Triggered' ) elseif isr.display.waitEnter( 0.1 ) then print( 'Entered' ) end
	--- </remarks>
	waitTrigger = function( timeout ) 

		return waitKey( timeout , _G.display.KEY_TRIG )

	end

	_G.setfenv(1, _G)

	-- Store chunck name at a standard location for require() to look it up.
	_G._LOADED[chunkName]=true

end



--- <summary>
--- Adds support for TSP Scripts.</summary>
--- <namespace>_G.isr.script</namespace>
--- <license>http://www.isr.cc/licenses/Gnu Lesser General Public License.pdf</license>
--- <history date="04/12/07" by="David Hary" revision="1.00.2658.x">
--- Copyright ? 2007-2008 by Integrated Scientific Resources, Inc.
--- </history>

do

	local chunkName = "_g.isr.scripts.tsp"

  require("_g.require.lua" , chunkName )
  require("_g.type.lua" , chunkName )

  --- <summary>Gets or sets a name space for ISR code.</summary>
  isr = isr or {}

  --- <summary>Gets or sets a name space for ISR script commands.</summary>
  isr.script = isr.script or {}

  local Public, Private = isr.script , {}
  -- Get local access to the global environment
  local _G = _G
  -- Declare all public functions as global variables and they will go to 
  -- a separate table automatically. Register this table as the package name. 
  setfenv(1, Public)

  --- <summary>Executes a loaded scripton the remote node.</summary>
  --- <param name="tslNode">Specifies the TSL node.</param>
  --- <param name="script">Specifies the script.</param>
  executeScript = function( tslNode , script ) 

    -- loads and runs the specified script.
    tslNode.execute( "script.user.scripts." .. script.name .. "()" ) 

  end

  --- <summary>Executes the specified scripts on all remote nodes.</summary>
  --- <param name="tslNode">Specifies the TSL node.</param>
  --- <param name="...">Specifies the scripts to load.</param>
  executeScripts = function( ... )

  	if arg.n >= 1 then
  		-- check if we have a node.
  		if arg[ 1 ].index ~= nil then 
  			-- if first argument is a node, do this
  			local tslNode = arg[ 1 ]
				for i , script in _G.ipairs( arg ) do
					if i > 1 then
						executeScript( tslNode , script )
					end
				end
			else
				-- if no nodes specifies, repeat for all nodes.
				for i , tslNode in _G.ipairs( _G.isrNodes ) do
					if (not tslNode.isController) and tslNode.enabled then
						executeScripts( tslNode , _G.unpack(arg) ) 
					end
				end
			end
		end

    return
 
  end

  --- <summary>Returms the new script command for the specified script in the 
  --- format: 'script.new([[code]],[[name]]).</summary>
  --- <param name="script">Specifies the script.</param>
  newScriptCommand = function( script ) 

    -- TSB does not interpret the bracket properly when placed within comment l
    -- ines taking them as opening or closing a comment paragraph.
    -- node[n].execute("script.new([["..s.source.."]], [["..s.name.."]])")
    -- code = 'script.new( [[%s]], [[%s]] )' 
    return _G.string.format( "%s = script.new(["..'[%s]'.."],["..'[%s]'.."])" , script.name , script.source, script.name)

  end

  --- <summary>Loads the specified scripts to a remote node.</summary>
  --- <param name="tslNode">Specifies the TSL node.</param>
  --- <param name="script">Specifies the script.</param>
  uploadScript = function( tslNode , script ) 

		-- move the script to the node using the data queue
		tslNode.dataqueue.add(script.source)
		_G.waitcomplete( tslNode.groupNo or 0 )

    -- loads and runs the specified script.
    sc = _G.string.format( '%s = script.new(dataqueue.next(), [' .. '[%s]' .. '])' , script.name , script.name)
    tslNode.execute( sc ) 
		_G.waitcomplete( tslNode.groupNo or 0 )

    return

  end

  --- <summary>Loads the specified scripts to all remote nodes.</summary>
  --- <param name="tslNode">Specifies the TSL node.</param>
  --- <param name="...">Specifies the scripts to load.</param>
  uploadScripts = function( ... )

  	if arg.n >= 1 then
  		-- check if we have a node.
  		if arg[ 1 ].index ~= nil then 
  			-- if first argument is a node, do this
  			local tslNode = arg[ 1 ]
				for i , script in _G.ipairs( arg ) do
					if i > 1 then
						uploadScript( tslNode , script )
					end
				end
			else
				-- if no nodes specifies, repeat for all nodes.
				for i , tslNode in _G.ipairs( _G.isrNodes ) do
					if (not tslNode.isController) and tslNode.enabled then
						uploadScripts( tslNode , _G.unpack(arg) ) 
					end
				end
			end
		end

    return

  end

  _G.setfenv(1, _G)

  -- Store chunck name at a standard location for require() to look it up.
  _G._LOADED[chunkName]=true

end
--- <summary>
--- Adds support for TSP Buffers.</summary>
--- <namespace>_G.isr</namespace>
--- <license>http://www.isr.cc/licenses/Gnu Lesser General Public License.pdf</license>
--- <history date="04/12/07" by="David Hary" revision="1.00.2658.x">
--- Copyright ? 2007-2008 by Integrated Scientific Resources, Inc.
--- </history>

do

	local chunkName = "_g.isr.buffers.tsp"

	--- <summary>Gets or sets a name space for ISR code.</summary>
	isr = isr or {}

	--- <summary>Gets or sets a name space for ISR Buffers commands.</summary>
	isr.buffers = isr.buffers or {}

	--- <summary>Prints all buffered data.</summary>
	isr.buffers.printBuffers = function( startIndex , endIndex )

		startIndex = startIndex or 1
		endIndex = endIndex or 1

		for i , n in ipairs( isrNodes ) do 
			if n.family == 2600 then
				for i , s in ipairs( n.smus ) do 
					for i , b in ipairs( s.nvbuffers ) do 
						if b and b.n then
							if endIndex <= b.n then
								if b.collectsourcevalues == 1 then
									printbuffer( startIndex , endIndex , b.readings, b.sourcevalues )
								else
									printbuffer( startIndex , endIndex , b.readings )
								end
							end
						end
					end
				end
			end
		end

	end

	--- <summary>Returns overall status code read from the buffer.</summary>
	--- <param name="buffer">Specifies a reference to the readings buffer.</param>
	isr.buffers.getOverallStatus = function( buffer ) 

		local status = 0
		local bitOr = _G.bit.bitor
		for i = 1, buffer.n do
			status = bitOr( status , buffer.statuses[ i ] )
		end

		return status

	end

	local Public, Private = isr.buffers , {}
	-- Get local access to the global environment
	local _G = _G
	-- Declare all public functions as global variables and they will go to 
	-- a separate table automatically. Register this table as the package name. 
	setfenv(1, Public)

	_G.setfenv(1, _G)

	-- Store chunck name at a standard location for require() to look it up.
	_G._LOADED[chunkName]=true

end



--- <summary>
--- ISR Meta data structure.
--- </summary>
--- <remarks>
--- see Meta Structure.html under the ISR TSP Framework documentation.
--- The ISR TSP Framework consists of two heirarchical tables of 
--- miroring structures: isr.meta and isr.nodes.
--- Accessing specific items on these structures requires indexings. 
--- Indexes are set when initializing the TSP link system (see tsplink.tsp).
--- The indexes are set and get using raw set and raw get commands on the actual
--- snode and subsystem elements.  Thus, the TSL basic structures. are augmented
--- to assist in creating the ISR TSP Framework (see below).<p>
--- </p><p>
--- Augmented TSL
--- </p><p>
--- TSL is augmented to enable pointing to the meta sets.  This is required 
--- so that TSL objects can point to the meta sets that desribe the desired 
--- behaviors. New attributes
--- are added to TSL using 'rawset' as follows:	</p><p>
--- Node Attributes:  													</p><p>
--- isContoller - tags a node as a controller on the TSP Link network. </p><p>
--- count				- the number of nodes. </p><p>
--- enabled 		- indicates if a node is enabled.</p><p>
--- group				- the group number for this node.</p><p>
--- index				- the index of the node in the node table. </p><p>
--- number			- the node number. </p><p>
--- smus				- the node SMUs. </p><p>
--- </p><p>
--- SMUA and SMUB Attributes: 																			</p><p>
--- enabled 		- indicates if the SMU is enabled.</p><p>
--- nodeNumber	- the node number. </p><p>
--- nodeIndex		- the index of the node in the node table. </p><p>
--- number			- the smu number. This is also the index. </p><p>
--- nvbuffers		- the SMU non-volatile buffers. </p><p>
--- </p><p>
--- </p><p>
--- Non-Volatile Buffer (nvbufferX): 																</p><p>
--- nodeNumber	- the node number. </p><p>
--- number			- the buffer number. This is also the index. </p><p>
--- nodeIndex		- the index of the node in the node table. </p><p>
--- unitNumber	- the smu number. This is also the index tot he SMU table. </p><p>
--- </p><p>
--- isr.meta(data)
--- </p><p>
--- The ISR Metadata is an hierarchical table that describes and defines 
--- data for the ISR Meta Objects.  The hierarchy mimics the hierarchy of the isr.nodes
--- table (see below).												</p><p>
--- ISR Meta includes variables only and thus can be copied to and from remote
--- nodes using the set and get global TSL methods.
---												</p><p>
--- The meta data hierarchy include node-specific data allowing copying relevant
--- structures to remote node and back to the controller.  For example,
--- the structure includes the node number for the node element but not the node
--- count or node index because the two latter elements differ for the structure 
--- on the controller, which includes a number of nodes, and the remote node 
--- which includes only a single node.
--- </p><p>
--- isr.meta.tests
--- </p><p>
--- Includes test data
--- </p><p>
--- </p><p>
--- isr.meta.data
--- </p><p>
--- Includes test results (measurands), one set per test as follows.
--- data[test#].smus[]
--- data[test#].calc[]
--- </p><p>
--- </p><p>
--- isr.meta.display
--- </p><p>
--- Includes display settings and values.
--- </p><p>
--- </p><p>
--- isr.nodes
--- </p><p>
--- The ISR Nodes is an hierarchical table that describes and defines 
--- operations for the ISR Meta Objects.  The hierarchy mimics the hierarchy of the isr.meta
--- table (see above).
---												</p><p>
--- ISR Nodes includes functions and variables and thus cannot be copies to and from remote
--- nodes using the set and get global TSL methods.  The ISR Nodes structures are created 
--- on remote nodes when the ISR system is reset using isr.tasplink.reset().
--- </p><p>
--- </p>
--- </remarks>
--- <namespace>_G.isr.meta</namespace>
--- <license>http://www.isr.cc/licenses/Gnu Lesser General Public License.pdf</license>
--- <history date="04/18/07" by="David Hary" revision="1.00.2664.x">
--- Copyright ? 2007-2008 by Integrated Scientific Resources, Inc.
--- </history>

do

	local chunkName = "_g.isr.meta.tsp"

  require("_g.require.lua" , chunkName )
  require("_g.global.tsp" , chunkName )

	--- <summary>Gets or sets a name space for ISR code.</summary>
	isr = isr or {}

	--- <summary>Gets or sets a name space for ISR Meta data. Each
	--- numerically indexed element in this table is a meta data for a node.</summary>
	isr.meta = {}
	isrMeta = isr.meta

	--- <summary>Gets or sets the number of nodes.</summary>
	isrMeta.count = 0

  --- <summary>Initializes the meta tables.  Clears contants of tables on the local 
  --- nodes in case a node is disconnected. Permits defining a meta table on the 
  --- remote node without having to load the Meta script.</summary>
  isr.meta.initialize = function()

		isr = isr or {}

		isr.meta = isr.meta or {}

		-- clear the calculation data table
	  isr.meta.calc = {}

		-- clear the meta nodes.
		isr.meta = isr.meta or {}
		isr.meta.count = 0
		for i, v in ipairs(isr.meta) do v = nil end

		-- create Meta aliases
		isrMeta = isr.meta
	  isrMetaCalc = isr.meta.calc
	
	  return
	
  end

	--- <summary>Returns a reference to the ISR Meta node.</summary>
  --- <param name="n">Specifies a reference to a node.</param>
	isr.meta.node = function( n ) 
		return isrMeta[ n.nodeIndex ]
	end

	--- <summary>Returns a reference to the ISR Meta SMU.</summary>
  --- <param name="smu">Specifies reference to the smu.</param>
	isr.meta.smu = function( smu ) 
		return isrMeta[ smu.nodeIndex ].smus[ smu.number ]
	end

	--- <summary>Returns a reference to a copy of the remote smu metadata.
	--- This requires that the remote global is set.</summary>
  --- <param name="nodeIndex">Specifies the node number.</param>
  --- <param name="nameFormat">Specifies the format of the global name.
  --- the command expects a node number, e.g., 
  --- globalname = isrMeta[nodeIndex].smus[smuNo]"</param>
  --- <param name="...">Specifies the command format to execute on the remote node.</param>
	isr.meta.getglobal = function( nodeIndex , nameFormat , ... ) 
		return getsubglobal( node[nodeIndex] , string.format(nameFormat , nodeIndex , unpack(arg) ))
	end

	--- <summary>Returns a reference to a copy of the remote channel metadata.
	--- This requires that the remote global is set.</summary>
  --- <param name="nodeIndex">Specifies the node number.</param>
	isr.meta.remoteChannel = function( nodeIndex ) 
		return isr.meta.getglobal( nodeIndex , "isrMeta[%d].channel" )
	end

	--- <summary>Returns a reference to a copy of the remote channel metadata value.
	--- This requires that the remote global is set.</summary>
  --- <param name="nodeIndex">Specifies the node number.</param>
  --- <param name="valueName">Specifies the name of the value.</param>
	isr.meta.remoteChannelValue = function( nodeIndex , valueName ) 
		return isr.meta.getglobal( nodeIndex , "isrMeta[%d].channel.%s" , valueName )
	end

	--- <summary>Returns a reference to a copy of the remote digio metadata.
	--- This requires that the remote global is set.</summary>
  --- <param name="nodeIndex">Specifies the node number.</param>
	isr.meta.remoteDigio = function( nodeIndex ) 
		return isr.meta.getglobal( nodeIndex , "isrMeta[%d].digio" )
	end

	--- <summary>Returns a reference to a copy of the remote digio metadata value.
	--- This requires that the remote global is set.</summary>
  --- <param name="nodeIndex">Specifies the node number.</param>
  --- <param name="valueName">Specifies the name of the value.</param>
	isr.meta.remoteDigioValue = function( nodeIndex , valueName ) 
		return isr.meta.getglobal( nodeIndex , "isrMeta[%d].digio.%s" , valueName )
	end

	--- <summary>Returns a reference to a copy of the remote node metadata.
	--- This requires that the remote global is set.</summary>
  --- <param name="nodeIndex">Specifies the node number.</param>
	isr.meta.remoteNode = function( nodeIndex ) 
		return isr.meta.getglobal( nodeIndex , "isrMeta[%d]" )
	end

	--- <summary>Returns a reference to a copy of the remote node metadata value.
	--- This requires that the remote global is set.</summary>
  --- <param name="nodeIndex">Specifies the node number.</param>
  --- <param name="valueName">Specifies the name of the value.</param>
	isr.meta.remoteNode = function( nodeIndex , valueName ) 
		return isr.meta.getglobal( nodeIndex , "isrMeta[%d].%s" , valueName  )
	end

	--- <summary>Returns a reference to a copy of the remote smu metadata.
	--- This requires that the remote global is set.</summary>
  --- <param name="nodeIndex">Specifies the node number.</param>
  --- <param name="smuNo">Specifies the smu number.</param>
	isr.meta.remoteSmu = function( nodeIndex , smuNo ) 
		return isr.meta.getglobal( nodeIndex , "isrMeta[%d].smus[%d]" , smuNo )
	end

	--- <summary>Returns a reference to a copy of the remote smu metadata value.
	--- This requires that the remote global is set.</summary>
  --- <param name="nodeIndex">Specifies the node number.</param>
  --- <param name="smuNo">Specifies the smu number.</param>
  --- <param name="valueName">Specifies the name of the value.</param>
	isr.meta.remoteSmuValue = function( nodeIndex , smuNo , valueName ) 
		return isr.meta.getglobal( nodeIndex , "isrMeta[%d].smus[%d].%s" , smuNo , valueName )
	end

  -- Store chunck name at a standard location for require() to look it up.
  _G._LOADED[chunkName]=true

end

--- <summary>
--- ISR Nodes structure.
--- Holds reference to actual nodes and subsystems.
--- This is different from the Meta structure, which holds only data.
--- Special structures were created so as not to have to change the
--- build-in systems. Such entities allow refering to the smus[] on a node using 
--- a table rather than smua or smub or similarly to nvbuffers[] instead of nvbufferi 
--- and nvbufferv. This was done initially by creating special repeating entities.
--- However, for simplicity the structures were added to the build-in elements.
--- </summary>
--- <remarks>
--- See ISR\meta.tsp
--- </remarks>
--- <namespace>_G.isr.nodes</namespace>
--- <license>http://www.isr.cc/licenses/Gnu Lesser General Public License.pdf</license>
--- <history date="04/18/07" by="David Hary" revision="1.00.2664.x">
--- Copyright ? 2007-2008 by Integrated Scientific Resources, Inc.
--- </history>
--- <history date="06/19/08" by="David Hary" revision="3.00.3092.x">
--- Eliminate special tables for smu and buffer nodes.
--- </history>

do

	local chunkName = "_g.isr.nodes.tsp"

	--- <summary>Gets or sets a name space for ISR code.</summary>
	isr = isr or {}

	--- <summary>Gets or sets a name space for ISR TSP references.</summary>
	isr.nodes = {}
	isrNodes = isr.nodes

  --- <summary>Initializes the node tables.  Clears contants of tables on the local 
  --- nodes in case a node is disconnected. Permits defining a nodes table on the 
  --- remote node without having to load the Nodes script.</summary>
  isr.nodes.initialize = function()

		isr = isr or {}

		isr.nodes = isr.nodes or {}

		-- clear the calculation function table
	  isr.nodes.calc = {}

		isr.nodes = isr.nodes or {}
		isr.nodes.count = 0
		for i, v in ipairs(isr.nodes) do v = nil end

		-- create Tsp aliases
		isrNodes = isr.nodes 
	  isrNodesCalc = isr.nodes.calc

		return

  end

  -- Store chunck name at a standard location for require() to look it up.
  _G._LOADED[chunkName]=true

end

-- <summary>
--- Adds support for TSP Nodes.</summary>
--- <namespace>_G.isr.node</namespace>
--- <license>http://www.isr.cc/licenses/Gnu Lesser General Public License.pdf</license>
--- <history date="04/12/07" by="David Hary" revision="1.00.2658.x">
--- Copyright ? 2007-2008 by Integrated Scientific Resources, Inc.
--- </history>

do

	local chunkName = "_g.isr.node.tsp"

  require("_g.require.lua" , chunkName )
  require("_g.isr.nodes.tsp" , chunkName )

	--- <summary>Gets or sets a name space for ISR code.</summary>
	isr = isr or {}

	--- <summary>Gets or sets a name space for ISR Nodes code.</summary>
	isr.node = isr.node or {}

  local Public, Private = isr.node, {}
  -- Get local access to the global environment
  local _G = _G
  -- Declare all public functions as global variables and they will go to 
  -- a separate table automatically. Register this table as the package name. 
  setfenv(1, Public)
  _G.setfenv(1, _G)

	--- <summary>Assigns a node to each group for a fully parallel operation of 
	--- each node in the system.</summary>
	isr.node.assignGroups = function()

		-- initialize tsp link if not online
		if isr.tsplink.isOffline() then
			isr.tsplink.reset()
		end

		for i , v in ipairs( isrNodes ) do 
			rawset( v , 'groupNo' , i ) 
			v.tsplink.group = i 
		end

	end

	--- <summary>Collects garbage on the node.  This could be a remote node.</summary>
  --- <param name="tslNode">Specifies reference to a TSL node.</param>
	--- <history date="07/16/08" by="David Hary" revision="1.00.3113.x">
	--- Passed
	--- </history>
  isr.node.collectgarbage = function( tslNode )

		if tslNode == nil then

			for i , v in ipairs( isrNodes ) do 
				if v.enabled then
					isr.node.collectgarbage( v ) 
				end
			end

		else

			if tslNode.isController then
				collectgarbage()
			else
				tslNode.execute("collectgarbage()") 
				waitcomplete( tslNode.groupNo or 0 )
			end

		end

	end

	--- <summary>Copies meta data to all nodes.</summary>
  --- <param name="tslNode">Specifies reference to a TSL node.</param>
	isr.node.copyMetaData = function( tslNode ) 

		if tslNode == nil then

			for i , v in ipairs( isrNodes ) do 
				if v.enabled then
					isr.node.copyMetaData( v ) 
				end
			end

		else

			if not tslNode.isController then

				setsubglobal( tslNode , 'isr.meta[ 1 ]' , isr.meta[ tslNode.index ] )

			end

		end

	end

	--- <summary>Displays the same message on all nodes.</summary>
	isr.node.displayMessages = function( value )

		for i , v in ipairs( isrNodes ) do 
			if v.enabled then
				v.display.clear()
				v.display.settext( value )
			end
		end

	end

	--- <summary>Displays a message on a node.</summary>
	isr.node.displayMessage = function( tslNode , value )

		tslNode.display.clear()
		tslNode.display.settext( value )

	end

	--- <summary>Displays a message on a node.</summary>
	isr.node.localDisplayMessage = function( value )

		isr.node.displayMessage( localnode, value ) 

	end

	--- <summary>Executes the specified string on all remote nodes.</summary>
	isr.node.execute = function( commandString )

		for i , v in ipairs( isrNodes ) do 
			if v.enabled then
				if not v.isController then
					v.execute( commandString ) 
					waitcomplete( v.groupNo or 0 )
				end
			end
		end

	end

	--- <summary>Executes the specified string on all remote nodes.</summary>
	isr.node.exe = function( commandString )

		if type(node) == 'table' then
	    local i = 0
	    while node[ i + 1 ] do
	      i = i + 1
			  v = node[ i ]
				if v ~= localnode then
					v.execute( commandString ) 
					waitcomplete(i)
				end
			end
		end

	end

	--- <summary>Gets the next value from the remote data queue after adding the command value to
	--- that data queue.</summary>
	--- <remarks>
	--- G.benchmark( "remote value: " , isr.node.remoteValue, n2 , 'isr.meta.smu( localnode.smua ).source.settlingTime' )
	--- remote value:  0.001953, 0.001953
	--- _G.benchmark( "opc: " , opc , nil )
	--- opc:  0.000488 
	--- </remarks>
	isr.node.remoteValue = function( tslNode , command ) 

		tslNode.execute( 'dataqueue.add(' .. command .. ')' )
		waitcomplete( tslNode.groupNo or 0 )
		return tslNode.dataqueue.next()

	end

	--- <summary>Prepares TSP triggering.</summary>
	--- <remarks>
	--- Node 1 serves as the master node.  It synchronizes with remote nodes over TSP Lane 1.
	--- The TSP-Link trigger lane #1 is used for synchronization.
	--- (M)aster asserts the trigger by pulling it low using tsplink.trigger[n].assert(). 
	--- (A)cceptors immediately(within 100 nsec) latch the falling edge and
	--- drive the end lane low.  Acceptors hold the wired OR trigger lane low
	--- until they execute the tsplink.trigger[n].assert() command, which 
  --- causes them to drive the lane high.  When the last acceptor releases 
  --- the lane, the master will see the rising edge and continue.  That is, 
  --- assuming the master was executing a tsplink.trigger[1].wait() command 
  --- after it drove the lane low to begin with.
	--- </remarks>
  --- <param name="triggerLineNo">Specifies the trigger line number.</param>
	isr.node.primeLanes = function( triggerLineNo )

		for nodeIndex , tslNode in ipairs( isrNodes ) do 
			if tslNode.enabled then 
				if tslNode.isController then
					tslNode.tsplink.trigger[ triggerLineNo ].mode = tsplink.TRIG_SYNCHRONOUSM 
					tslNode.tsplink.trigger[ triggerLineNo ].pulsewidth = 10E-6
				else
					tslNode.tsplink.trigger[ triggerLineNo ].mode = tsplink.TRIG_SYNCHRONOUSA
				end
			end
		end

	end

	--- <summary>Resets the node SMUS.</summary>
  --- <param name="tslNode">Specifies reference to a TSL node.</param>
	--- <history date="07/16/08" by="David Hary" revision="1.00.3113.x">
	--- Passed running on two nodes: 3706 + 2602.
	--- </history>
	isr.node.reset = function( tslNode )

		if tslNode == nil then

			for i , v in ipairs( isrNodes ) do 
				if v.enabled then 
					isr.node.reset( v )
				end
			end

		else

			if tslNode.enabled then 
		  	tslNode.reset()
		  end

		end

	end

  --- <summaryRestore the display screen on all nodes.</summary>
  isr.node.restoreScreens = function() 

		for i , v in ipairs( isrNodes ) do 
			if v.enabled then
	  		v.display.screen = isrMeta[ i ].display.screen
	  	end
		end

  end

  --- <summaryStores the display screen on all nodes.</summary>
  isr.node.storeScreens = function() 

		for i , v in ipairs( isrNodes ) do 
			if v.enabled then
	  		isrMeta[ i ].display.screen = v.display.screen
	  	end
		end

  end

--[[
	--- <summary>Wait for all groups to complete.</summary>
	--- <deprecated>
	--- replaced with waitcomplete( 0 )
	--- </deprecated>
	--- <remarks>
	--- TSP does not wait for remote nodes to to finish execution. This
	--- function makes sure that all nodes are done executing.
	--- waitcomplete() returns when the group (node in this case) is finished. 
	--- This method assumes that each group includes one node and the node
	--- number is the same as the group number.
	--- <remarks>
	isr.node.waitGroupsComplete = function()

  	for j = 1 , isrNodes.count do
  		waitcomplete(j) 
  	end 

	end
]]--

  -- Store chunck name at a standard location for require() to look it up.
  _G._LOADED[chunkName]=true

end

--- <summary>
--- Constructs the base ISR metadata and nodes hierarchies.
--- Adds attributes to TSL entities pointing to the ISR meta and nodes tables.
--- Creates the structures on the remote node as well.  This is done on the
--- local node construct on the remote node because setting the structure from 
--- the local node is not possible.
--- This module must include only generic globals. This is because the 
--- code is executed before loading the ISR TSP framework into the remote nodes.
--- </summary>
--- <namespace>_G.isr.tsplink</namespace>
--- <license>http://www.isr.cc/licenses/Gnu Lesser General Public License.pdf</license>
--- <history date="04/09/07" by="David Hary" revision="1.00.2655.x">
--- Copyright ? 2007-2008 by Integrated Scientific Resources, Inc.
--- </history>
--- <history date="06/19/08" by="David Hary" revision="3.00.3092.x">
--- Add smus[] to node and nvbuffers[] to smu and remove special nodes
--- tables for smu and buffer nodes.  Populate switch node.
--- </history>

do

	local chunkName = "_g.isr.tsplink.tsp"

  require("_g.require.lua" , chunkName )
  require("_g.isr.meta.tsp" , chunkName )
  require("_g.isr.nodes.tsp" , chunkName )

  --- <summary>Gets or sets a name space for ISR code.</summary>
  isr = isr or {}

  --- <summary>Gets or sets a name space for ISR TSP Link code.</summary>
  isr.tsplink = isr.tsplink or {}

  --- <summary>Define a node if tsp link reset fails.</summary>
  --- node = node or {}

  --- <summary>Augment the specified node with new data structures.
  --- This must be executed on each node including the local node construct
  --- on the remote system. Because TSP Link is initialized before
  --- any code can be loaded into the nodes, this code segment must not include
  --- any a As a result, this must only have generic TSP syntax.
  --- </summary>
  --- <param name="tslNode">Specifies the node to populate or nil for the local node.</param>
  --- <param name="nodeNo">Specifies the node number.</param>
  isr.tsplink.augmentNode = function( tslNode , nodeNo )

		local nodeIndex = nodeNo

    if tslNode == nil then

			-- if node is not defined, then assume the code is executed
			-- on the remote node.
      tslNode = localnode

			-- tag the local unspecified node as a remote node on the TSP link net.
	    rawset( tslNode , 'isController' , false )

			-- use the node number to identify the node number.
			nodeNo = tsplink.node

			-- there will be only a single node on the remote node.
			nodeIndex = 1

    end

    -- reset the node 
    tslNode.reset()

    -- raw set on the node as getting the group from tsp link causes a problem.
    rawset( tslNode , 'groupNo' , nodeNo ) 
 
    -- set model family to a number.
    rawset( tslNode , 'family' , string.sub( tslNode.model , 1 , 2 ) * 100 )
 
    -- enable node.
    rawset( tslNode , 'enabled' , true )

    -- set node number and node index.  Node number is different than node index 
    -- on the remote node which node number maybe greater than one but its node
    -- index will be one.
    rawset( tslNode , 'number' , nodeNo )
    rawset( tslNode , 'index' , nodeIndex  )

		-- add node to the data structure.  Thge meta node include only data.
		local metaNode = {}
		isr.meta[ nodeIndex ] = metaNode
		isr.meta.count = isr.meta.count + 1

		-- set nodes reference to the actual node.
	  isr.nodes[ nodeIndex ] = tslNode
	  isr.nodes.count = isr.nodes.count + 1
	
		-- add standard meta node structures
	  metaNode.tests = {}
	  metaNode.data = {}

		-- add standard meta node subsystems structures
 		local metaDisplay = {}
		metaNode.display = metaDisplay

 		local metaDigio = {}
		metaNode.digio = metaDigio

		return

  end

  --- <summary>Augment a local 26xx instrument family node with new structures.
  --- This must be executed on each node including the local node
  --- on the remote system.  As a result, this must only have
  --- use only generic TSP syntax.
  --- </summary>
  --- <param name="tslNode">Specifies the node to populate or nil for the local node.</param>
  isr.tsplink.augment26xxNode = function( tslNode )

    if tslNode == nil then
      tslNode = localnode
    end

		-- select the meta node for this node.
		local metaNode = isr.meta[ tslNode.index ] 

		-- add special 26xx instrument famity structures.
		metaNode.smus = {}
		metaNode.smus.count = 0

	  -- create the smus subsystem table on the node.
    rawset( tslNode , 'smus' , {}  )
    tslNode.smus.count = 0

		-- add smu subsystems
    local smu 
    for i = 1 , 2 do
 
      if i == 1 then
        smu = tslNode.smua
      else
        smu = tslNode.smub
      end
 
      if smu ~= nil then

				-- add this SMU to the meta data and nodes structures
				local metaSmu = {}
				metaNode.smus[ i ] = metaSmu
				tslNode.smus[ i ] = smu

        -- update the smu count on the metadata and node structures
				metaNode.smus.count = metaNode.smus.count + 1
   		  tslNode.smus.count =  tslNode.smus.count  + 1

				-- add custom attributes to the smu
		    rawset( smu , 'enabled' , true )

		    -- set node number on smu to help select the node knowing the SMU.
				metaSmu.nodeNumber = tslNode.number
		    rawset( smu , 'nodeNumber' , tslNode.number )

				metaSmu.nodeIndex = tslNode.index
		    rawset( smu , 'nodeIndex' , tslNode.index )

				-- allow the smu to know its number
		    metaSmu.number = i
		    rawset( smu , 'number' , i )

		    -- set meta smu sub systems data.
		    metaSmu.measurands = {}
		    metaSmu.contact = {}
		    metaSmu.measure = {}
		    metaSmu.source = {}
		    metaSmu.cache = {}
		    metaSmu.cache.measurands = {}
		    metaSmu.cache.contact = {}
		    metaSmu.cache.measure = {}
		    metaSmu.cache.nvbuffer = { {} , {} }
		    metaSmu.cache.source = {}

        -- add nv buffers table to the data structure.
	 			metaSmu.nvbuffers = {}
	 			metaSmu.nvbuffers.count = 0
		    rawset( smu , 'nvbuffers' , {} )
				smu.nvbuffers.count  = 0

        local buffer
        for j = 1 , 2 do
          if j == 1 then
            buffer = smu.nvbuffer1
          else
            buffer = smu.nvbuffer2
          end

  	      local metaBuffer = {}
  	      metaSmu.nvbuffers[ j ] = metaBuffer
  	      smu.nvbuffers[ j ] = buffer
					metaSmu.nvbuffers.count = metaSmu.nvbuffers.count + 1
					smu.nvbuffers.count = smu.nvbuffers.count + 1

			    -- set node number number.
			    rawset( buffer , 'nodeNumber' , tslNode.number )
			    rawset( buffer , 'nodeIndex' , tslNode.index )
			    metaBuffer.nodeNumber = tslNode.number
			    metaBuffer.nodeIndex = tslNode.index

			    -- set smu number number.
			    rawset( buffer , 'unitNumber' , i )
			    metaBuffer.unitNumber = i

			    -- set buff er number number.
			    rawset( buffer , 'number' , j )
			    metaBuffer.number = j
	 
        end

      end
 
    end

		return

  end

  --- <summary>Augment a local 37xx instrument family node with required structures
  --- for indexing the ISR TSP framework.
  --- This must be executed on each node including the local node construct
  --- on the remote system.  As a result, this must only have
  --- use only generic TSP syntax.
  --- </summary>
  --- <param name="tslNode">Specifies the node to populate or nil for the local node.</param>
  isr.tsplink.augment37xxNode = function( tslNode )

		-- select the meta node for this node.
		local metaNode = isr.meta[ tslNode.index ] 

		-- add special 37xx instrument famity structures.
 		local metaChannel = {}
		metaNode.channel = metaChannel

		return

  end
 
  --- <summary>Returns the node count.</summary>
  local nodeCount = function()
    local count = 0
    while node[ count + 1 ] do
      count = count + 1 
    end
    return count
  end

  --- <summary>Returns true if the TSP link is ready.</summary>
  isr.tsplink.isOnline = function()

  	return (tsplink.state == 'online') and (node ~= nil) and (node[1] ~= nil) 
  		and (isrNodes.count ~= nil)

  end

  --- <summary>Returns true if the TSP link needs to be reset.</summary>
  isr.tsplink.isOffline = function()

  	return (tsplink.state == 'offline') or (node == nil) or (node[1] == nil) 
  		or (isrNodes.count == nil)

  end

  --- <summary>Resets the specified remote node.</summary>
	isr.tsplink.resetRemote = function( tslNode ) 

    waitcomplete( tslNode.groupNo or 0 )

		-- load the support script to the remote node
		isr.script.uploadScript( tslNode , isr_support )
    waitcomplete( tslNode.groupNo or 0 )

		-- execute the support script on the remote node
		-- _G.isr.script.executeScript( tslNode , isr_support )
		tslNode.execute( "script.user.scripts.isr_support()") 
    waitcomplete( tslNode.groupNo or 0 )
 
    -- set the node number on the remote
    tslNode.execute( "isr.meta.initialize()" )
    waitcomplete( tslNode.groupNo or 0 )

    tslNode.execute( "isr.nodes.initialize()" )
    waitcomplete( tslNode.groupNo or 0 )

    tslNode.execute( "isr.tsplink.augmentNode()" )
    waitcomplete( tslNode.groupNo or 0 )

  	-- augment specific structures.
    if tslNode.family == 2600 then

			tslNode.execute( "isr.tsplink.augment26xxNode()" )

    elseif tslNode.family == 3700 then

    	tslNode.execute( "isr.tsplink.augment37xxNode()" )

		end
 
    waitcomplete( tslNode.groupNo or 0 )
 
		return

	end

  --- <summary>Resets the tsp link and sets nodes, smus, and buffers with counts.</summary>
  --- <param name="suppressErrors">Specifies the condition for suppressing errors.</param>
  --- <remarks>
  --- 8/15/2008:
  --- </remarks>
	--- <history date="07/15/08" by="David Hary" revision="3.00.3118.x">
	--- Remove screen.dump as it would not work across products.
	--- Load support script.
	--- </history>
	--- <history date="07/16/08" by="David Hary" revision="1.00.3113.x">
	--- Passed running on two nodes: 3706 + 2602.
	--- </history>
  isr.tsplink.reset = function( showErrors )

  	-- clear elements so that if a node was disconnected we can reset.
  	isr.meta.initialize() 
		isr.nodes.initialize()

    local errorMode = localnode.showerrors
    if showErrors and true then
      localnode.showerrors = 0
    end
 
    -- initialize the TSP Link Network. 
    local outcome, nodeCount = pcall( tsplink.reset )
 
    -- check if call failed or a single node
    if not outcome or nodeCount == 1 then
 
    	-- if a single node, create the node table so that we can still do work
    	-- with a single instrument for whatever it is worth.
      node = {}
      node[1] = localnode
      errorqueue.clear()
 
    end
 
    local nodeNo = 0
 
    -- scan all non-empty nodes.
    while node[ nodeNo + 1 ] do

      nodeNo = nodeNo + 1

      -- set reference to the node
      local tslNode = node[ nodeNo ]

			-- tag the local node node as a controller on the TSP link net.
	    rawset( tslNode , 'isController' , tslNode == localnode )

      -- set the group number for the node so that we can execute
      -- concurrent code on all nodes.
      tslNode.tsplink.group = nodeNo

			-- autment the node attributes.
			isr.tsplink.augmentNode( tslNode , nodeNo ) 
	
      -- augment specific structures.
      if tslNode.family == 2600 then

				isr.tsplink.augment26xxNode( tslNode )

      elseif tslNode.family == 3700 then

				isr.tsplink.augment37xxNode( tslNode )

			end

			-- execute the code on all remote nodes
      if tslNode ~= localnode then

				isr.tsplink.resetRemote( tslNode ) 

      end
      waitcomplete( tslNode.groupNo or 0 )
 
    end

    localnode.showerrors = errorMode

		return

  end

  -- Store chunck name at a standard location for require() to look it up.
  _G._LOADED[chunkName]=true

end



